^W:\CCT\CCTPROJECT\NECSDKWRAPPER\DN_ENUMMONITORS.CPP
/c /I"W:\LIB\VCPKG-MASTER\SCRIPTS\BUILDSYSTEMS\MSBUILD\..\..\..\INSTALLED\X86-WINDOWS\INCLUDE" /AI"C:\PROGRAM FILES (X86)\REFERENCE ASSEMBLIES\MICROSOFT\FRAMEWORK\.NETFRAMEWORK\V4.5.2\\" /AI"C:\PROGRAM FILES (X86)\WINDOWS KITS\10\REFERENCES" /AI"C:\PROGRAM FILES (X86)\REFERENCE ASSEMBLIES\MICROSOFT\FRAMEWORK\.NETFRAMEWORK\V4.5.2\FACADES\\" /Zi /clr /nologo /W3 /WX- /diagnostics:column /O2 /Oy- /D _WINDLL /D _AFXDLL /EHa /MD /GS /fp:precise /Zc:wchar_t /Zc:forScope /Zc:inline /Fo"INTERMEDIATE\RELEASE\\" /Fd"INTERMEDIATE\RELEASE\VC142.PDB" /TP /FU"C:\PROGRAM FILES (X86)\REFERENCE ASSEMBLIES\MICROSOFT\FRAMEWORK\.NETFRAMEWORK\V4.5.2\MSCORLIB.DLL" /FU"C:\PROGRAM FILES (X86)\REFERENCE ASSEMBLIES\MICROSOFT\FRAMEWORK\.NETFRAMEWORK\V4.5.2\SYSTEM.DATA.DLL" /FU"C:\PROGRAM FILES (X86)\REFERENCE ASSEMBLIES\MICROSOFT\FRAMEWORK\.NETFRAMEWORK\V4.5.2\SYSTEM.DLL" /FU"C:\PROGRAM FILES (X86)\REFERENCE ASSEMBLIES\MICROSOFT\FRAMEWORK\.NETFRAMEWORK\V4.5.2\SYSTEM.XML.DLL" /analyze- /FC /clr:nostdlib  W:\CCT\CCTPROJECT\NECSDKWRAPPER\DN_ENUMMONITORS.CPP
^W:\CCT\CCTPROJECT\NECSDKWRAPPER\DN_HSINESPLINE.CPP
/c /I"W:\LIB\VCPKG-MASTER\SCRIPTS\BUILDSYSTEMS\MSBUILD\..\..\..\INSTALLED\X86-WINDOWS\INCLUDE" /AI"C:\PROGRAM FILES (X86)\REFERENCE ASSEMBLIES\MICROSOFT\FRAMEWORK\.NETFRAMEWORK\V4.5.2\\" /AI"C:\PROGRAM FILES (X86)\WINDOWS KITS\10\REFERENCES" /AI"C:\PROGRAM FILES (X86)\REFERENCE ASSEMBLIES\MICROSOFT\FRAMEWORK\.NETFRAMEWORK\V4.5.2\FACADES\\" /Zi /clr /nologo /W3 /WX- /diagnostics:column /O2 /Oy- /D _WINDLL /D _AFXDLL /EHa /MD /GS /fp:precise /Zc:wchar_t /Zc:forScope /Zc:inline /Fo"INTERMEDIATE\RELEASE\\" /Fd"INTERMEDIATE\RELEASE\VC142.PDB" /TP /FU"C:\PROGRAM FILES (X86)\REFERENCE ASSEMBLIES\MICROSOFT\FRAMEWORK\.NETFRAMEWORK\V4.5.2\MSCORLIB.DLL" /FU"C:\PROGRAM FILES (X86)\REFERENCE ASSEMBLIES\MICROSOFT\FRAMEWORK\.NETFRAMEWORK\V4.5.2\SYSTEM.DATA.DLL" /FU"C:\PROGRAM FILES (X86)\REFERENCE ASSEMBLIES\MICROSOFT\FRAMEWORK\.NETFRAMEWORK\V4.5.2\SYSTEM.DLL" /FU"C:\PROGRAM FILES (X86)\REFERENCE ASSEMBLIES\MICROSOFT\FRAMEWORK\.NETFRAMEWORK\V4.5.2\SYSTEM.XML.DLL" /analyze- /FC /clr:nostdlib  W:\CCT\CCTPROJECT\NECSDKWRAPPER\DN_HSINESPLINE.CPP
^W:\CCT\CCTPROJECT\NECSDKWRAPPER\DN_UTIL.CPP
/c /I"W:\LIB\VCPKG-MASTER\SCRIPTS\BUILDSYSTEMS\MSBUILD\..\..\..\INSTALLED\X86-WINDOWS\INCLUDE" /AI"C:\PROGRAM FILES (X86)\REFERENCE ASSEMBLIES\MICROSOFT\FRAMEWORK\.NETFRAMEWORK\V4.5.2\\" /AI"C:\PROGRAM FILES (X86)\WINDOWS KITS\10\REFERENCES" /AI"C:\PROGRAM FILES (X86)\REFERENCE ASSEMBLIES\MICROSOFT\FRAMEWORK\.NETFRAMEWORK\V4.5.2\FACADES\\" /Zi /clr /nologo /W3 /WX- /diagnostics:column /O2 /Oy- /D _WINDLL /D _AFXDLL /EHa /MD /GS /fp:precise /Zc:wchar_t /Zc:forScope /Zc:inline /Fo"INTERMEDIATE\RELEASE\\" /Fd"INTERMEDIATE\RELEASE\VC142.PDB" /TP /FU"C:\PROGRAM FILES (X86)\REFERENCE ASSEMBLIES\MICROSOFT\FRAMEWORK\.NETFRAMEWORK\V4.5.2\MSCORLIB.DLL" /FU"C:\PROGRAM FILES (X86)\REFERENCE ASSEMBLIES\MICROSOFT\FRAMEWORK\.NETFRAMEWORK\V4.5.2\SYSTEM.DATA.DLL" /FU"C:\PROGRAM FILES (X86)\REFERENCE ASSEMBLIES\MICROSOFT\FRAMEWORK\.NETFRAMEWORK\V4.5.2\SYSTEM.DLL" /FU"C:\PROGRAM FILES (X86)\REFERENCE ASSEMBLIES\MICROSOFT\FRAMEWORK\.NETFRAMEWORK\V4.5.2\SYSTEM.XML.DLL" /analyze- /FC /clr:nostdlib  W:\CCT\CCTPROJECT\NECSDKWRAPPER\DN_UTIL.CPP
^W:\CCT\CCTPROJECT\NECSDKWRAPPER\DOTNETMONITOR.CPP
/c /I"W:\LIB\VCPKG-MASTER\SCRIPTS\BUILDSYSTEMS\MSBUILD\..\..\..\INSTALLED\X86-WINDOWS\INCLUDE" /AI"C:\PROGRAM FILES (X86)\REFERENCE ASSEMBLIES\MICROSOFT\FRAMEWORK\.NETFRAMEWORK\V4.5.2\\" /AI"C:\PROGRAM FILES (X86)\WINDOWS KITS\10\REFERENCES" /AI"C:\PROGRAM FILES (X86)\REFERENCE ASSEMBLIES\MICROSOFT\FRAMEWORK\.NETFRAMEWORK\V4.5.2\FACADES\\" /Zi /clr /nologo /W3 /WX- /diagnostics:column /O2 /Oy- /D _WINDLL /D _AFXDLL /EHa /MD /GS /fp:precise /Zc:wchar_t /Zc:forScope /Zc:inline /Fo"INTERMEDIATE\RELEASE\\" /Fd"INTERMEDIATE\RELEASE\VC142.PDB" /TP /FU"C:\PROGRAM FILES (X86)\REFERENCE ASSEMBLIES\MICROSOFT\FRAMEWORK\.NETFRAMEWORK\V4.5.2\MSCORLIB.DLL" /FU"C:\PROGRAM FILES (X86)\REFERENCE ASSEMBLIES\MICROSOFT\FRAMEWORK\.NETFRAMEWORK\V4.5.2\SYSTEM.DATA.DLL" /FU"C:\PROGRAM FILES (X86)\REFERENCE ASSEMBLIES\MICROSOFT\FRAMEWORK\.NETFRAMEWORK\V4.5.2\SYSTEM.DLL" /FU"C:\PROGRAM FILES (X86)\REFERENCE ASSEMBLIES\MICROSOFT\FRAMEWORK\.NETFRAMEWORK\V4.5.2\SYSTEM.XML.DLL" /analyze- /FC /clr:nostdlib  W:\CCT\CCTPROJECT\NECSDKWRAPPER\DOTNETMONITOR.CPP
^W:\CCT\CCTPROJECT\NECSDKWRAPPER\MONITORCONTROL\ENUMMONITORS.CPP
/c /I"W:\LIB\VCPKG-MASTER\SCRIPTS\BUILDSYSTEMS\MSBUILD\..\..\..\INSTALLED\X86-WINDOWS\INCLUDE" /AI"C:\PROGRAM FILES (X86)\REFERENCE ASSEMBLIES\MICROSOFT\FRAMEWORK\.NETFRAMEWORK\V4.5.2\\" /AI"C:\PROGRAM FILES (X86)\WINDOWS KITS\10\REFERENCES" /AI"C:\PROGRAM FILES (X86)\REFERENCE ASSEMBLIES\MICROSOFT\FRAMEWORK\.NETFRAMEWORK\V4.5.2\FACADES\\" /Zi /clr /nologo /W3 /WX- /diagnostics:column /O2 /Oy- /D _WINDLL /D _AFXDLL /EHa /MD /GS /fp:precise /Zc:wchar_t /Zc:forScope /Zc:inline /Fo"INTERMEDIATE\RELEASE\\" /Fd"INTERMEDIATE\RELEASE\VC142.PDB" /TP /FU"C:\PROGRAM FILES (X86)\REFERENCE ASSEMBLIES\MICROSOFT\FRAMEWORK\.NETFRAMEWORK\V4.5.2\MSCORLIB.DLL" /FU"C:\PROGRAM FILES (X86)\REFERENCE ASSEMBLIES\MICROSOFT\FRAMEWORK\.NETFRAMEWORK\V4.5.2\SYSTEM.DATA.DLL" /FU"C:\PROGRAM FILES (X86)\REFERENCE ASSEMBLIES\MICROSOFT\FRAMEWORK\.NETFRAMEWORK\V4.5.2\SYSTEM.DLL" /FU"C:\PROGRAM FILES (X86)\REFERENCE ASSEMBLIES\MICROSOFT\FRAMEWORK\.NETFRAMEWORK\V4.5.2\SYSTEM.XML.DLL" /analyze- /FC /clr:nostdlib  W:\CCT\CCTPROJECT\NECSDKWRAPPER\MONITORCONTROL\ENUMMONITORS.CPP
^W:\CCT\CCTPROJECT\NECSDKWRAPPER\NEC_CLI_MONITOR.CPP
/c /I"W:\LIB\VCPKG-MASTER\SCRIPTS\BUILDSYSTEMS\MSBUILD\..\..\..\INSTALLED\X86-WINDOWS\INCLUDE" /AI"C:\PROGRAM FILES (X86)\REFERENCE ASSEMBLIES\MICROSOFT\FRAMEWORK\.NETFRAMEWORK\V4.5.2\\" /AI"C:\PROGRAM FILES (X86)\WINDOWS KITS\10\REFERENCES" /AI"C:\PROGRAM FILES (X86)\REFERENCE ASSEMBLIES\MICROSOFT\FRAMEWORK\.NETFRAMEWORK\V4.5.2\FACADES\\" /Zi /clr /nologo /W3 /WX- /diagnostics:column /O2 /Oy- /D _WINDLL /D _AFXDLL /EHa /MD /GS /fp:precise /Zc:wchar_t /Zc:forScope /Zc:inline /Fo"INTERMEDIATE\RELEASE\\" /Fd"INTERMEDIATE\RELEASE\VC142.PDB" /TP /FU"C:\PROGRAM FILES (X86)\REFERENCE ASSEMBLIES\MICROSOFT\FRAMEWORK\.NETFRAMEWORK\V4.5.2\MSCORLIB.DLL" /FU"C:\PROGRAM FILES (X86)\REFERENCE ASSEMBLIES\MICROSOFT\FRAMEWORK\.NETFRAMEWORK\V4.5.2\SYSTEM.DATA.DLL" /FU"C:\PROGRAM FILES (X86)\REFERENCE ASSEMBLIES\MICROSOFT\FRAMEWORK\.NETFRAMEWORK\V4.5.2\SYSTEM.DLL" /FU"C:\PROGRAM FILES (X86)\REFERENCE ASSEMBLIES\MICROSOFT\FRAMEWORK\.NETFRAMEWORK\V4.5.2\SYSTEM.XML.DLL" /analyze- /FC /clr:nostdlib  W:\CCT\CCTPROJECT\NECSDKWRAPPER\NEC_CLI_MONITOR.CPP
^W:\CCT\CCTPROJECT\NECSDKWRAPPER\VCP_CODES.CPP
/c /I"W:\LIB\VCPKG-MASTER\SCRIPTS\BUILDSYSTEMS\MSBUILD\..\..\..\INSTALLED\X86-WINDOWS\INCLUDE" /AI"C:\PROGRAM FILES (X86)\REFERENCE ASSEMBLIES\MICROSOFT\FRAMEWORK\.NETFRAMEWORK\V4.5.2\\" /AI"C:\PROGRAM FILES (X86)\WINDOWS KITS\10\REFERENCES" /AI"C:\PROGRAM FILES (X86)\REFERENCE ASSEMBLIES\MICROSOFT\FRAMEWORK\.NETFRAMEWORK\V4.5.2\FACADES\\" /Zi /clr /nologo /W3 /WX- /diagnostics:column /O2 /Oy- /D _WINDLL /D _AFXDLL /EHa /MD /GS /fp:precise /Zc:wchar_t /Zc:forScope /Zc:inline /Fo"INTERMEDIATE\RELEASE\\" /Fd"INTERMEDIATE\RELEASE\VC142.PDB" /TP /FU"C:\PROGRAM FILES (X86)\REFERENCE ASSEMBLIES\MICROSOFT\FRAMEWORK\.NETFRAMEWORK\V4.5.2\MSCORLIB.DLL" /FU"C:\PROGRAM FILES (X86)\REFERENCE ASSEMBLIES\MICROSOFT\FRAMEWORK\.NETFRAMEWORK\V4.5.2\SYSTEM.DATA.DLL" /FU"C:\PROGRAM FILES (X86)\REFERENCE ASSEMBLIES\MICROSOFT\FRAMEWORK\.NETFRAMEWORK\V4.5.2\SYSTEM.DLL" /FU"C:\PROGRAM FILES (X86)\REFERENCE ASSEMBLIES\MICROSOFT\FRAMEWORK\.NETFRAMEWORK\V4.5.2\SYSTEM.XML.DLL" /analyze- /FC /clr:nostdlib  W:\CCT\CCTPROJECT\NECSDKWRAPPER\VCP_CODES.CPP
^W:\CCT\CCTPROJECT\NECSDKWRAPPER\ASSEMBLYINFO.CPP
/c /I"W:\LIB\VCPKG-MASTER\SCRIPTS\BUILDSYSTEMS\MSBUILD\..\..\..\INSTALLED\X86-WINDOWS\INCLUDE" /AI"C:\PROGRAM FILES (X86)\REFERENCE ASSEMBLIES\MICROSOFT\FRAMEWORK\.NETFRAMEWORK\V4.5.2\\" /AI"C:\PROGRAM FILES (X86)\WINDOWS KITS\10\REFERENCES" /AI"C:\PROGRAM FILES (X86)\REFERENCE ASSEMBLIES\MICROSOFT\FRAMEWORK\.NETFRAMEWORK\V4.5.2\FACADES\\" /Zi /clr /nologo /W3 /WX- /diagnostics:column /O2 /Oy- /D _WINDLL /D _AFXDLL /EHa /MD /GS /fp:precise /Zc:wchar_t /Zc:forScope /Zc:inline /Fo"INTERMEDIATE\RELEASE\\" /Fd"INTERMEDIATE\RELEASE\VC142.PDB" /TP /FU"C:\PROGRAM FILES (X86)\REFERENCE ASSEMBLIES\MICROSOFT\FRAMEWORK\.NETFRAMEWORK\V4.5.2\MSCORLIB.DLL" /FU"C:\PROGRAM FILES (X86)\REFERENCE ASSEMBLIES\MICROSOFT\FRAMEWORK\.NETFRAMEWORK\V4.5.2\SYSTEM.DATA.DLL" /FU"C:\PROGRAM FILES (X86)\REFERENCE ASSEMBLIES\MICROSOFT\FRAMEWORK\.NETFRAMEWORK\V4.5.2\SYSTEM.DLL" /FU"C:\PROGRAM FILES (X86)\REFERENCE ASSEMBLIES\MICROSOFT\FRAMEWORK\.NETFRAMEWORK\V4.5.2\SYSTEM.XML.DLL" /analyze- /FC /clr:nostdlib  W:\CCT\CCTPROJECT\NECSDKWRAPPER\ASSEMBLYINFO.CPP
^W:\CCT\CCTPROJECT\NECSDKWRAPPER\CLR_MONAPI2DLL.CPP
/c /I"W:\LIB\VCPKG-MASTER\SCRIPTS\BUILDSYSTEMS\MSBUILD\..\..\..\INSTALLED\X86-WINDOWS\INCLUDE" /AI"C:\PROGRAM FILES (X86)\REFERENCE ASSEMBLIES\MICROSOFT\FRAMEWORK\.NETFRAMEWORK\V4.5.2\\" /AI"C:\PROGRAM FILES (X86)\WINDOWS KITS\10\REFERENCES" /AI"C:\PROGRAM FILES (X86)\REFERENCE ASSEMBLIES\MICROSOFT\FRAMEWORK\.NETFRAMEWORK\V4.5.2\FACADES\\" /Zi /clr /nologo /W3 /WX- /diagnostics:column /O2 /Oy- /D _WINDLL /D _AFXDLL /EHa /MD /GS /fp:precise /Zc:wchar_t /Zc:forScope /Zc:inline /Fo"INTERMEDIATE\RELEASE\\" /Fd"INTERMEDIATE\RELEASE\VC142.PDB" /TP /FU"C:\PROGRAM FILES (X86)\REFERENCE ASSEMBLIES\MICROSOFT\FRAMEWORK\.NETFRAMEWORK\V4.5.2\MSCORLIB.DLL" /FU"C:\PROGRAM FILES (X86)\REFERENCE ASSEMBLIES\MICROSOFT\FRAMEWORK\.NETFRAMEWORK\V4.5.2\SYSTEM.DATA.DLL" /FU"C:\PROGRAM FILES (X86)\REFERENCE ASSEMBLIES\MICROSOFT\FRAMEWORK\.NETFRAMEWORK\V4.5.2\SYSTEM.DLL" /FU"C:\PROGRAM FILES (X86)\REFERENCE ASSEMBLIES\MICROSOFT\FRAMEWORK\.NETFRAMEWORK\V4.5.2\SYSTEM.XML.DLL" /analyze- /FC /clr:nostdlib  W:\CCT\CCTPROJECT\NECSDKWRAPPER\CLR_MONAPI2DLL.CPP
^W:\CCT\CCTPROJECT\NECSDKWRAPPER\DN_CMONAPIDUMMY.CPP
/c /I"W:\LIB\VCPKG-MASTER\SCRIPTS\BUILDSYSTEMS\MSBUILD\..\..\..\INSTALLED\X86-WINDOWS\INCLUDE" /AI"C:\PROGRAM FILES (X86)\REFERENCE ASSEMBLIES\MICROSOFT\FRAMEWORK\.NETFRAMEWORK\V4.5.2\\" /AI"C:\PROGRAM FILES (X86)\WINDOWS KITS\10\REFERENCES" /AI"C:\PROGRAM FILES (X86)\REFERENCE ASSEMBLIES\MICROSOFT\FRAMEWORK\.NETFRAMEWORK\V4.5.2\FACADES\\" /Zi /clr /nologo /W3 /WX- /diagnostics:column /O2 /Oy- /D _WINDLL /D _AFXDLL /EHa /MD /GS /fp:precise /Zc:wchar_t /Zc:forScope /Zc:inline /Fo"INTERMEDIATE\RELEASE\\" /Fd"INTERMEDIATE\RELEASE\VC142.PDB" /TP /FU"C:\PROGRAM FILES (X86)\REFERENCE ASSEMBLIES\MICROSOFT\FRAMEWORK\.NETFRAMEWORK\V4.5.2\MSCORLIB.DLL" /FU"C:\PROGRAM FILES (X86)\REFERENCE ASSEMBLIES\MICROSOFT\FRAMEWORK\.NETFRAMEWORK\V4.5.2\SYSTEM.DATA.DLL" /FU"C:\PROGRAM FILES (X86)\REFERENCE ASSEMBLIES\MICROSOFT\FRAMEWORK\.NETFRAMEWORK\V4.5.2\SYSTEM.DLL" /FU"C:\PROGRAM FILES (X86)\REFERENCE ASSEMBLIES\MICROSOFT\FRAMEWORK\.NETFRAMEWORK\V4.5.2\SYSTEM.XML.DLL" /analyze- /FC /clr:nostdlib  W:\CCT\CCTPROJECT\NECSDKWRAPPER\DN_CMONAPIDUMMY.CPP
^W:\CCT\CCTPROJECT\NECSDKWRAPPER\INTERMEDIATE\RELEASE\.NETFRAMEWORK,VERSION=V4.5.2.ASSEMBLYATTRIBUTES.CPP
/c /I"W:\LIB\VCPKG-MASTER\SCRIPTS\BUILDSYSTEMS\MSBUILD\..\..\..\INSTALLED\X86-WINDOWS\INCLUDE" /AI"C:\PROGRAM FILES (X86)\REFERENCE ASSEMBLIES\MICROSOFT\FRAMEWORK\.NETFRAMEWORK\V4.5.2\\" /AI"C:\PROGRAM FILES (X86)\WINDOWS KITS\10\REFERENCES" /AI"C:\PROGRAM FILES (X86)\REFERENCE ASSEMBLIES\MICROSOFT\FRAMEWORK\.NETFRAMEWORK\V4.5.2\FACADES\\" /Zi /clr /nologo /W3 /WX- /diagnostics:column /O2 /Oy- /D _WINDLL /D _AFXDLL /EHa /MD /GS /fp:precise /Zc:wchar_t /Zc:forScope /Zc:inline /Fo"INTERMEDIATE\RELEASE\\" /Fd"INTERMEDIATE\RELEASE\VC142.PDB" /TP /FU"C:\PROGRAM FILES (X86)\REFERENCE ASSEMBLIES\MICROSOFT\FRAMEWORK\.NETFRAMEWORK\V4.5.2\MSCORLIB.DLL" /FU"C:\PROGRAM FILES (X86)\REFERENCE ASSEMBLIES\MICROSOFT\FRAMEWORK\.NETFRAMEWORK\V4.5.2\SYSTEM.DATA.DLL" /FU"C:\PROGRAM FILES (X86)\REFERENCE ASSEMBLIES\MICROSOFT\FRAMEWORK\.NETFRAMEWORK\V4.5.2\SYSTEM.DLL" /FU"C:\PROGRAM FILES (X86)\REFERENCE ASSEMBLIES\MICROSOFT\FRAMEWORK\.NETFRAMEWORK\V4.5.2\SYSTEM.XML.DLL" /analyze- /FC /clr:nostdlib  W:\CCT\CCTPROJECT\NECSDKWRAPPER\INTERMEDIATE\RELEASE\.NETFRAMEWORK,VERSION=V4.5.2.ASSEMBLYATTRIBUTES.CPP
^W:\CCT\CCTPROJECT\NECSDKWRAPPER\DATASTRUCTURES\CSPLINE.CPP
/c /I"W:\LIB\VCPKG-MASTER\SCRIPTS\BUILDSYSTEMS\MSBUILD\..\..\..\INSTALLED\X86-WINDOWS\INCLUDE" /AI"C:\PROGRAM FILES (X86)\REFERENCE ASSEMBLIES\MICROSOFT\FRAMEWORK\.NETFRAMEWORK\V4.5.2\\" /AI"C:\PROGRAM FILES (X86)\WINDOWS KITS\10\REFERENCES" /AI"C:\PROGRAM FILES (X86)\REFERENCE ASSEMBLIES\MICROSOFT\FRAMEWORK\.NETFRAMEWORK\V4.5.2\FACADES\\" /Zi /clr /nologo /W3 /WX- /diagnostics:column /O2 /Oy- /D _WINDLL /D _AFXDLL /EHa /MD /GS /fp:precise /Zc:wchar_t /Zc:forScope /Zc:inline /Fo"INTERMEDIATE\RELEASE\\" /Fd"INTERMEDIATE\RELEASE\VC142.PDB" /TP /FU"C:\PROGRAM FILES (X86)\REFERENCE ASSEMBLIES\MICROSOFT\FRAMEWORK\.NETFRAMEWORK\V4.5.2\MSCORLIB.DLL" /FU"C:\PROGRAM FILES (X86)\REFERENCE ASSEMBLIES\MICROSOFT\FRAMEWORK\.NETFRAMEWORK\V4.5.2\SYSTEM.DATA.DLL" /FU"C:\PROGRAM FILES (X86)\REFERENCE ASSEMBLIES\MICROSOFT\FRAMEWORK\.NETFRAMEWORK\V4.5.2\SYSTEM.DLL" /FU"C:\PROGRAM FILES (X86)\REFERENCE ASSEMBLIES\MICROSOFT\FRAMEWORK\.NETFRAMEWORK\V4.5.2\SYSTEM.XML.DLL" /analyze- /FC /clr:nostdlib  W:\CCT\CCTPROJECT\NECSDKWRAPPER\DATASTRUCTURES\CSPLINE.CPP
^W:\CCT\CCTPROJECT\NECSDKWRAPPER\DDCCI\CDECOMPILE_EDID.CPP
/c /I"W:\LIB\VCPKG-MASTER\SCRIPTS\BUILDSYSTEMS\MSBUILD\..\..\..\INSTALLED\X86-WINDOWS\INCLUDE" /AI"C:\PROGRAM FILES (X86)\REFERENCE ASSEMBLIES\MICROSOFT\FRAMEWORK\.NETFRAMEWORK\V4.5.2\\" /AI"C:\PROGRAM FILES (X86)\WINDOWS KITS\10\REFERENCES" /AI"C:\PROGRAM FILES (X86)\REFERENCE ASSEMBLIES\MICROSOFT\FRAMEWORK\.NETFRAMEWORK\V4.5.2\FACADES\\" /Zi /clr /nologo /W3 /WX- /diagnostics:column /O2 /Oy- /D _WINDLL /D _AFXDLL /EHa /MD /GS /fp:precise /Zc:wchar_t /Zc:forScope /Zc:inline /Fo"INTERMEDIATE\RELEASE\\" /Fd"INTERMEDIATE\RELEASE\VC142.PDB" /TP /FU"C:\PROGRAM FILES (X86)\REFERENCE ASSEMBLIES\MICROSOFT\FRAMEWORK\.NETFRAMEWORK\V4.5.2\MSCORLIB.DLL" /FU"C:\PROGRAM FILES (X86)\REFERENCE ASSEMBLIES\MICROSOFT\FRAMEWORK\.NETFRAMEWORK\V4.5.2\SYSTEM.DATA.DLL" /FU"C:\PROGRAM FILES (X86)\REFERENCE ASSEMBLIES\MICROSOFT\FRAMEWORK\.NETFRAMEWORK\V4.5.2\SYSTEM.DLL" /FU"C:\PROGRAM FILES (X86)\REFERENCE ASSEMBLIES\MICROSOFT\FRAMEWORK\.NETFRAMEWORK\V4.5.2\SYSTEM.XML.DLL" /analyze- /FC /clr:nostdlib  W:\CCT\CCTPROJECT\NECSDKWRAPPER\DDCCI\CDECOMPILE_EDID.CPP
^W:\CCT\CCTPROJECT\NECSDKWRAPPER\DDCCI\CPARSECAPABILITYSTRING.CPP
/c /I"W:\LIB\VCPKG-MASTER\SCRIPTS\BUILDSYSTEMS\MSBUILD\..\..\..\INSTALLED\X86-WINDOWS\INCLUDE" /AI"C:\PROGRAM FILES (X86)\REFERENCE ASSEMBLIES\MICROSOFT\FRAMEWORK\.NETFRAMEWORK\V4.5.2\\" /AI"C:\PROGRAM FILES (X86)\WINDOWS KITS\10\REFERENCES" /AI"C:\PROGRAM FILES (X86)\REFERENCE ASSEMBLIES\MICROSOFT\FRAMEWORK\.NETFRAMEWORK\V4.5.2\FACADES\\" /Zi /clr /nologo /W3 /WX- /diagnostics:column /O2 /Oy- /D _WINDLL /D _AFXDLL /EHa /MD /GS /fp:precise /Zc:wchar_t /Zc:forScope /Zc:inline /Fo"INTERMEDIATE\RELEASE\\" /Fd"INTERMEDIATE\RELEASE\VC142.PDB" /TP /FU"C:\PROGRAM FILES (X86)\REFERENCE ASSEMBLIES\MICROSOFT\FRAMEWORK\.NETFRAMEWORK\V4.5.2\MSCORLIB.DLL" /FU"C:\PROGRAM FILES (X86)\REFERENCE ASSEMBLIES\MICROSOFT\FRAMEWORK\.NETFRAMEWORK\V4.5.2\SYSTEM.DATA.DLL" /FU"C:\PROGRAM FILES (X86)\REFERENCE ASSEMBLIES\MICROSOFT\FRAMEWORK\.NETFRAMEWORK\V4.5.2\SYSTEM.DLL" /FU"C:\PROGRAM FILES (X86)\REFERENCE ASSEMBLIES\MICROSOFT\FRAMEWORK\.NETFRAMEWORK\V4.5.2\SYSTEM.XML.DLL" /analyze- /FC /clr:nostdlib  W:\CCT\CCTPROJECT\NECSDKWRAPPER\DDCCI\CPARSECAPABILITYSTRING.CPP
^W:\CCT\CCTPROJECT\NECSDKWRAPPER\DDCCI\DDCCONTROL.CPP
/c /I"W:\LIB\VCPKG-MASTER\SCRIPTS\BUILDSYSTEMS\MSBUILD\..\..\..\INSTALLED\X86-WINDOWS\INCLUDE" /AI"C:\PROGRAM FILES (X86)\REFERENCE ASSEMBLIES\MICROSOFT\FRAMEWORK\.NETFRAMEWORK\V4.5.2\\" /AI"C:\PROGRAM FILES (X86)\WINDOWS KITS\10\REFERENCES" /AI"C:\PROGRAM FILES (X86)\REFERENCE ASSEMBLIES\MICROSOFT\FRAMEWORK\.NETFRAMEWORK\V4.5.2\FACADES\\" /Zi /clr /nologo /W3 /WX- /diagnostics:column /O2 /Oy- /D _WINDLL /D _AFXDLL /EHa /MD /GS /fp:precise /Zc:wchar_t /Zc:forScope /Zc:inline /Fo"INTERMEDIATE\RELEASE\\" /Fd"INTERMEDIATE\RELEASE\VC142.PDB" /TP /FU"C:\PROGRAM FILES (X86)\REFERENCE ASSEMBLIES\MICROSOFT\FRAMEWORK\.NETFRAMEWORK\V4.5.2\MSCORLIB.DLL" /FU"C:\PROGRAM FILES (X86)\REFERENCE ASSEMBLIES\MICROSOFT\FRAMEWORK\.NETFRAMEWORK\V4.5.2\SYSTEM.DATA.DLL" /FU"C:\PROGRAM FILES (X86)\REFERENCE ASSEMBLIES\MICROSOFT\FRAMEWORK\.NETFRAMEWORK\V4.5.2\SYSTEM.DLL" /FU"C:\PROGRAM FILES (X86)\REFERENCE ASSEMBLIES\MICROSOFT\FRAMEWORK\.NETFRAMEWORK\V4.5.2\SYSTEM.XML.DLL" /analyze- /FC /clr:nostdlib  W:\CCT\CCTPROJECT\NECSDKWRAPPER\DDCCI\DDCCONTROL.CPP
^W:\CCT\CCTPROJECT\NECSDKWRAPPER\DDCCI\LOW_LEVEL_DDC.CPP
/c /I"W:\LIB\VCPKG-MASTER\SCRIPTS\BUILDSYSTEMS\MSBUILD\..\..\..\INSTALLED\X86-WINDOWS\INCLUDE" /AI"C:\PROGRAM FILES (X86)\REFERENCE ASSEMBLIES\MICROSOFT\FRAMEWORK\.NETFRAMEWORK\V4.5.2\\" /AI"C:\PROGRAM FILES (X86)\WINDOWS KITS\10\REFERENCES" /AI"C:\PROGRAM FILES (X86)\REFERENCE ASSEMBLIES\MICROSOFT\FRAMEWORK\.NETFRAMEWORK\V4.5.2\FACADES\\" /Zi /clr /nologo /W3 /WX- /diagnostics:column /O2 /Oy- /D _WINDLL /D _AFXDLL /EHa /MD /GS /fp:precise /Zc:wchar_t /Zc:forScope /Zc:inline /Fo"INTERMEDIATE\RELEASE\\" /Fd"INTERMEDIATE\RELEASE\VC142.PDB" /TP /FU"C:\PROGRAM FILES (X86)\REFERENCE ASSEMBLIES\MICROSOFT\FRAMEWORK\.NETFRAMEWORK\V4.5.2\MSCORLIB.DLL" /FU"C:\PROGRAM FILES (X86)\REFERENCE ASSEMBLIES\MICROSOFT\FRAMEWORK\.NETFRAMEWORK\V4.5.2\SYSTEM.DATA.DLL" /FU"C:\PROGRAM FILES (X86)\REFERENCE ASSEMBLIES\MICROSOFT\FRAMEWORK\.NETFRAMEWORK\V4.5.2\SYSTEM.DLL" /FU"C:\PROGRAM FILES (X86)\REFERENCE ASSEMBLIES\MICROSOFT\FRAMEWORK\.NETFRAMEWORK\V4.5.2\SYSTEM.XML.DLL" /analyze- /FC /clr:nostdlib  W:\CCT\CCTPROJECT\NECSDKWRAPPER\DDCCI\LOW_LEVEL_DDC.CPP
^W:\CCT\CCTPROJECT\NECSDKWRAPPER\DDCCI\MYTRACE.CPP
/c /I"W:\LIB\VCPKG-MASTER\SCRIPTS\BUILDSYSTEMS\MSBUILD\..\..\..\INSTALLED\X86-WINDOWS\INCLUDE" /AI"C:\PROGRAM FILES (X86)\REFERENCE ASSEMBLIES\MICROSOFT\FRAMEWORK\.NETFRAMEWORK\V4.5.2\\" /AI"C:\PROGRAM FILES (X86)\WINDOWS KITS\10\REFERENCES" /AI"C:\PROGRAM FILES (X86)\REFERENCE ASSEMBLIES\MICROSOFT\FRAMEWORK\.NETFRAMEWORK\V4.5.2\FACADES\\" /Zi /clr /nologo /W3 /WX- /diagnostics:column /O2 /Oy- /D _WINDLL /D _AFXDLL /EHa /MD /GS /fp:precise /Zc:wchar_t /Zc:forScope /Zc:inline /Fo"INTERMEDIATE\RELEASE\\" /Fd"INTERMEDIATE\RELEASE\VC142.PDB" /TP /FU"C:\PROGRAM FILES (X86)\REFERENCE ASSEMBLIES\MICROSOFT\FRAMEWORK\.NETFRAMEWORK\V4.5.2\MSCORLIB.DLL" /FU"C:\PROGRAM FILES (X86)\REFERENCE ASSEMBLIES\MICROSOFT\FRAMEWORK\.NETFRAMEWORK\V4.5.2\SYSTEM.DATA.DLL" /FU"C:\PROGRAM FILES (X86)\REFERENCE ASSEMBLIES\MICROSOFT\FRAMEWORK\.NETFRAMEWORK\V4.5.2\SYSTEM.DLL" /FU"C:\PROGRAM FILES (X86)\REFERENCE ASSEMBLIES\MICROSOFT\FRAMEWORK\.NETFRAMEWORK\V4.5.2\SYSTEM.XML.DLL" /analyze- /FC /clr:nostdlib  W:\CCT\CCTPROJECT\NECSDKWRAPPER\DDCCI\MYTRACE.CPP
^W:\CCT\CCTPROJECT\NECSDKWRAPPER\DDCCI\NMV_FACTORY_DDCCONTROL.CPP
/c /I"W:\LIB\VCPKG-MASTER\SCRIPTS\BUILDSYSTEMS\MSBUILD\..\..\..\INSTALLED\X86-WINDOWS\INCLUDE" /AI"C:\PROGRAM FILES (X86)\REFERENCE ASSEMBLIES\MICROSOFT\FRAMEWORK\.NETFRAMEWORK\V4.5.2\\" /AI"C:\PROGRAM FILES (X86)\WINDOWS KITS\10\REFERENCES" /AI"C:\PROGRAM FILES (X86)\REFERENCE ASSEMBLIES\MICROSOFT\FRAMEWORK\.NETFRAMEWORK\V4.5.2\FACADES\\" /Zi /clr /nologo /W3 /WX- /diagnostics:column /O2 /Oy- /D _WINDLL /D _AFXDLL /EHa /MD /GS /fp:precise /Zc:wchar_t /Zc:forScope /Zc:inline /Fo"INTERMEDIATE\RELEASE\\" /Fd"INTERMEDIATE\RELEASE\VC142.PDB" /TP /FU"C:\PROGRAM FILES (X86)\REFERENCE ASSEMBLIES\MICROSOFT\FRAMEWORK\.NETFRAMEWORK\V4.5.2\MSCORLIB.DLL" /FU"C:\PROGRAM FILES (X86)\REFERENCE ASSEMBLIES\MICROSOFT\FRAMEWORK\.NETFRAMEWORK\V4.5.2\SYSTEM.DATA.DLL" /FU"C:\PROGRAM FILES (X86)\REFERENCE ASSEMBLIES\MICROSOFT\FRAMEWORK\.NETFRAMEWORK\V4.5.2\SYSTEM.DLL" /FU"C:\PROGRAM FILES (X86)\REFERENCE ASSEMBLIES\MICROSOFT\FRAMEWORK\.NETFRAMEWORK\V4.5.2\SYSTEM.XML.DLL" /analyze- /FC /clr:nostdlib  W:\CCT\CCTPROJECT\NECSDKWRAPPER\DDCCI\NMV_FACTORY_DDCCONTROL.CPP
^W:\CCT\CCTPROJECT\NECSDKWRAPPER\DDCCI\NMVDDCCONTROL.CPP
/c /I"W:\LIB\VCPKG-MASTER\SCRIPTS\BUILDSYSTEMS\MSBUILD\..\..\..\INSTALLED\X86-WINDOWS\INCLUDE" /AI"C:\PROGRAM FILES (X86)\REFERENCE ASSEMBLIES\MICROSOFT\FRAMEWORK\.NETFRAMEWORK\V4.5.2\\" /AI"C:\PROGRAM FILES (X86)\WINDOWS KITS\10\REFERENCES" /AI"C:\PROGRAM FILES (X86)\REFERENCE ASSEMBLIES\MICROSOFT\FRAMEWORK\.NETFRAMEWORK\V4.5.2\FACADES\\" /Zi /clr /nologo /W3 /WX- /diagnostics:column /O2 /Oy- /D _WINDLL /D _AFXDLL /EHa /MD /GS /fp:precise /Zc:wchar_t /Zc:forScope /Zc:inline /Fo"INTERMEDIATE\RELEASE\\" /Fd"INTERMEDIATE\RELEASE\VC142.PDB" /TP /FU"C:\PROGRAM FILES (X86)\REFERENCE ASSEMBLIES\MICROSOFT\FRAMEWORK\.NETFRAMEWORK\V4.5.2\MSCORLIB.DLL" /FU"C:\PROGRAM FILES (X86)\REFERENCE ASSEMBLIES\MICROSOFT\FRAMEWORK\.NETFRAMEWORK\V4.5.2\SYSTEM.DATA.DLL" /FU"C:\PROGRAM FILES (X86)\REFERENCE ASSEMBLIES\MICROSOFT\FRAMEWORK\.NETFRAMEWORK\V4.5.2\SYSTEM.DLL" /FU"C:\PROGRAM FILES (X86)\REFERENCE ASSEMBLIES\MICROSOFT\FRAMEWORK\.NETFRAMEWORK\V4.5.2\SYSTEM.XML.DLL" /analyze- /FC /clr:nostdlib  W:\CCT\CCTPROJECT\NECSDKWRAPPER\DDCCI\NMVDDCCONTROL.CPP
