^W:\CCT\CCTPROJECT\NECSDKWRAPPER\ASSEMBLYINFO.CPP|W:\CCT\CCTPROJECT\NECSDKWRAPPER\CLR_MONAPI2DLL.CPP|W:\CCT\CCTPROJECT\NECSDKWRAPPER\DATASTRUCTURES\CSPLINE.CPP|W:\CCT\CCTPROJECT\NECSDKWRAPPER\DDCCI\CDECOMPILE_EDID.CPP|W:\CCT\CCTPROJECT\NECSDKWRAPPER\DDCCI\CPARSECAPABILITYSTRING.CPP|W:\CCT\CCTPROJECT\NECSDKWRAPPER\DDCCI\DDCCONTROL.CPP|W:\CCT\CCTPROJECT\NECSDKWRAPPER\DDCCI\LOW_LEVEL_DDC.CPP|W:\CCT\CCTPROJECT\NECSDKWRAPPER\DDCCI\MYTRACE.CPP|W:\CCT\CCTPROJECT\NECSDKWRAPPER\DDCCI\NMVDDCCONTROL.CPP|W:\CCT\CCTPROJECT\NECSDKWRAPPER\DDCCI\NMV_FACTORY_DDCCONTROL.CPP|W:\CCT\CCTPROJECT\NECSDKWRAPPER\DN_CMONAPIDUMMY.CPP|W:\CCT\CCTPROJECT\NECSDKWRAPPER\DN_ENUMMONITORS.CPP|W:\CCT\CCTPROJECT\NECSDKWRAPPER\DN_HSINESPLINE.CPP|W:\CCT\CCTPROJECT\NECSDKWRAPPER\DN_UTIL.CPP|W:\CCT\CCTPROJECT\NECSDKWRAPPER\DOTNETMONITOR.CPP|W:\CCT\CCTPROJECT\NECSDKWRAPPER\INTERMEDIATE\RELEASE\.NETFRAMEWORK,VERSION=V4.5.2.ASSEMBLYATTRIBUTES.CPP|W:\CCT\CCTPROJECT\NECSDKWRAPPER\MONITORCONTROL\ENUMMONITORS.CPP|W:\CCT\CCTPROJECT\NECSDKWRAPPER\NEC_CLI_MONITOR.CPP|W:\CCT\CCTPROJECT\NECSDKWRAPPER\VCP_CODES.CPP
W:\CCT\CCTPROJECT\NECSDKWRAPPER\INTERMEDIATE\RELEASE\VC142.PDB
W:\CCT\CCTPROJECT\NECSDKWRAPPER\INTERMEDIATE\RELEASE\.NETFRAMEWORK,VERSION=V4.5.2.ASSEMBLYATTRIBUTES.OBJ
W:\CCT\CCTPROJECT\NECSDKWRAPPER\INTERMEDIATE\RELEASE\VCP_CODES.OBJ
W:\CCT\CCTPROJECT\NECSDKWRAPPER\INTERMEDIATE\RELEASE\NEC_CLI_MONITOR.OBJ
W:\CCT\CCTPROJECT\NECSDKWRAPPER\INTERMEDIATE\RELEASE\ENUMMONITORS.OBJ
W:\CCT\CCTPROJECT\NECSDKWRAPPER\INTERMEDIATE\RELEASE\DOTNETMONITOR.OBJ
W:\CCT\CCTPROJECT\NECSDKWRAPPER\INTERMEDIATE\RELEASE\DN_UTIL.OBJ
W:\CCT\CCTPROJECT\NECSDKWRAPPER\INTERMEDIATE\RELEASE\DN_HSINESPLINE.OBJ
W:\CCT\CCTPROJECT\NECSDKWRAPPER\INTERMEDIATE\RELEASE\DN_ENUMMONITORS.OBJ
W:\CCT\CCTPROJECT\NECSDKWRAPPER\INTERMEDIATE\RELEASE\DN_CMONAPIDUMMY.OBJ
W:\CCT\CCTPROJECT\NECSDKWRAPPER\INTERMEDIATE\RELEASE\NMV_FACTORY_DDCCONTROL.OBJ
W:\CCT\CCTPROJECT\NECSDKWRAPPER\INTERMEDIATE\RELEASE\NMVDDCCONTROL.OBJ
W:\CCT\CCTPROJECT\NECSDKWRAPPER\INTERMEDIATE\RELEASE\MYTRACE.OBJ
W:\CCT\CCTPROJECT\NECSDKWRAPPER\INTERMEDIATE\RELEASE\LOW_LEVEL_DDC.OBJ
W:\CCT\CCTPROJECT\NECSDKWRAPPER\INTERMEDIATE\RELEASE\DDCCONTROL.OBJ
W:\CCT\CCTPROJECT\NECSDKWRAPPER\INTERMEDIATE\RELEASE\CPARSECAPABILITYSTRING.OBJ
W:\CCT\CCTPROJECT\NECSDKWRAPPER\INTERMEDIATE\RELEASE\CDECOMPILE_EDID.OBJ
W:\CCT\CCTPROJECT\NECSDKWRAPPER\INTERMEDIATE\RELEASE\CSPLINE.OBJ
W:\CCT\CCTPROJECT\NECSDKWRAPPER\INTERMEDIATE\RELEASE\CLR_MONAPI2DLL.OBJ
W:\CCT\CCTPROJECT\NECSDKWRAPPER\INTERMEDIATE\RELEASE\ASSEMBLYINFO.OBJ
^W:\CCT\CCTPROJECT\NECSDKWRAPPER\DN_ENUMMONITORS.CPP
W:\CCT\CCTPROJECT\NECSDKWRAPPER\INTERMEDIATE\RELEASE\VC142.PDB
^W:\CCT\CCTPROJECT\NECSDKWRAPPER\DN_HSINESPLINE.CPP
W:\CCT\CCTPROJECT\NECSDKWRAPPER\INTERMEDIATE\RELEASE\VC142.PDB
^W:\CCT\CCTPROJECT\NECSDKWRAPPER\DN_UTIL.CPP
W:\CCT\CCTPROJECT\NECSDKWRAPPER\INTERMEDIATE\RELEASE\VC142.PDB
^W:\CCT\CCTPROJECT\NECSDKWRAPPER\DOTNETMONITOR.CPP
W:\CCT\CCTPROJECT\NECSDKWRAPPER\INTERMEDIATE\RELEASE\VC142.PDB
^W:\CCT\CCTPROJECT\NECSDKWRAPPER\MONITORCONTROL\ENUMMONITORS.CPP
W:\CCT\CCTPROJECT\NECSDKWRAPPER\INTERMEDIATE\RELEASE\VC142.PDB
^W:\CCT\CCTPROJECT\NECSDKWRAPPER\NEC_CLI_MONITOR.CPP
W:\CCT\CCTPROJECT\NECSDKWRAPPER\INTERMEDIATE\RELEASE\VC142.PDB
^W:\CCT\CCTPROJECT\NECSDKWRAPPER\VCP_CODES.CPP
W:\CCT\CCTPROJECT\NECSDKWRAPPER\INTERMEDIATE\RELEASE\VC142.PDB
^W:\CCT\CCTPROJECT\NECSDKWRAPPER\ASSEMBLYINFO.CPP|W:\CCT\CCTPROJECT\NECSDKWRAPPER\CLR_MONAPI2DLL.CPP|W:\CCT\CCTPROJECT\NECSDKWRAPPER\DATASTRUCTURES\CSPLINE.CPP|W:\CCT\CCTPROJECT\NECSDKWRAPPER\DDCCI\CDECOMPILE_EDID.CPP|W:\CCT\CCTPROJECT\NECSDKWRAPPER\DDCCI\CPARSECAPABILITYSTRING.CPP|W:\CCT\CCTPROJECT\NECSDKWRAPPER\DDCCI\DDCCONTROL.CPP|W:\CCT\CCTPROJECT\NECSDKWRAPPER\DDCCI\LOW_LEVEL_DDC.CPP|W:\CCT\CCTPROJECT\NECSDKWRAPPER\DDCCI\MYTRACE.CPP|W:\CCT\CCTPROJECT\NECSDKWRAPPER\DDCCI\NMVDDCCONTROL.CPP|W:\CCT\CCTPROJECT\NECSDKWRAPPER\DDCCI\NMV_FACTORY_DDCCONTROL.CPP|W:\CCT\CCTPROJECT\NECSDKWRAPPER\DN_CMONAPIDUMMY.CPP|W:\CCT\CCTPROJECT\NECSDKWRAPPER\INTERMEDIATE\RELEASE\.NETFRAMEWORK,VERSION=V4.5.2.ASSEMBLYATTRIBUTES.CPP
W:\CCT\CCTPROJECT\NECSDKWRAPPER\INTERMEDIATE\RELEASE\VC142.PDB
W:\CCT\CCTPROJECT\NECSDKWRAPPER\INTERMEDIATE\RELEASE\NMVDDCCONTROL.OBJ
W:\CCT\CCTPROJECT\NECSDKWRAPPER\INTERMEDIATE\RELEASE\NMV_FACTORY_DDCCONTROL.OBJ
W:\CCT\CCTPROJECT\NECSDKWRAPPER\INTERMEDIATE\RELEASE\MYTRACE.OBJ
W:\CCT\CCTPROJECT\NECSDKWRAPPER\INTERMEDIATE\RELEASE\LOW_LEVEL_DDC.OBJ
W:\CCT\CCTPROJECT\NECSDKWRAPPER\INTERMEDIATE\RELEASE\DDCCONTROL.OBJ
W:\CCT\CCTPROJECT\NECSDKWRAPPER\INTERMEDIATE\RELEASE\CPARSECAPABILITYSTRING.OBJ
W:\CCT\CCTPROJECT\NECSDKWRAPPER\INTERMEDIATE\RELEASE\CDECOMPILE_EDID.OBJ
W:\CCT\CCTPROJECT\NECSDKWRAPPER\INTERMEDIATE\RELEASE\CSPLINE.OBJ
W:\CCT\CCTPROJECT\NECSDKWRAPPER\INTERMEDIATE\RELEASE\.NETFRAMEWORK,VERSION=V4.5.2.ASSEMBLYATTRIBUTES.OBJ
W:\CCT\CCTPROJECT\NECSDKWRAPPER\INTERMEDIATE\RELEASE\DN_CMONAPIDUMMY.OBJ
W:\CCT\CCTPROJECT\NECSDKWRAPPER\INTERMEDIATE\RELEASE\CLR_MONAPI2DLL.OBJ
W:\CCT\CCTPROJECT\NECSDKWRAPPER\INTERMEDIATE\RELEASE\ASSEMBLYINFO.OBJ
^W:\CCT\CCTPROJECT\NECSDKWRAPPER\ASSEMBLYINFO.CPP
W:\CCT\CCTPROJECT\NECSDKWRAPPER\INTERMEDIATE\RELEASE\VC142.PDB
^W:\CCT\CCTPROJECT\NECSDKWRAPPER\CLR_MONAPI2DLL.CPP
W:\CCT\CCTPROJECT\NECSDKWRAPPER\INTERMEDIATE\RELEASE\VC142.PDB
^W:\CCT\CCTPROJECT\NECSDKWRAPPER\DN_CMONAPIDUMMY.CPP
W:\CCT\CCTPROJECT\NECSDKWRAPPER\INTERMEDIATE\RELEASE\VC142.PDB
^W:\CCT\CCTPROJECT\NECSDKWRAPPER\INTERMEDIATE\RELEASE\.NETFRAMEWORK,VERSION=V4.5.2.ASSEMBLYATTRIBUTES.CPP
W:\CCT\CCTPROJECT\NECSDKWRAPPER\INTERMEDIATE\RELEASE\VC142.PDB
^W:\CCT\CCTPROJECT\NECSDKWRAPPER\DATASTRUCTURES\CSPLINE.CPP
W:\CCT\CCTPROJECT\NECSDKWRAPPER\INTERMEDIATE\RELEASE\VC142.PDB
^W:\CCT\CCTPROJECT\NECSDKWRAPPER\DDCCI\CDECOMPILE_EDID.CPP
W:\CCT\CCTPROJECT\NECSDKWRAPPER\INTERMEDIATE\RELEASE\VC142.PDB
^W:\CCT\CCTPROJECT\NECSDKWRAPPER\DDCCI\CPARSECAPABILITYSTRING.CPP
W:\CCT\CCTPROJECT\NECSDKWRAPPER\INTERMEDIATE\RELEASE\VC142.PDB
^W:\CCT\CCTPROJECT\NECSDKWRAPPER\DDCCI\DDCCONTROL.CPP
W:\CCT\CCTPROJECT\NECSDKWRAPPER\INTERMEDIATE\RELEASE\VC142.PDB
^W:\CCT\CCTPROJECT\NECSDKWRAPPER\DDCCI\LOW_LEVEL_DDC.CPP
W:\CCT\CCTPROJECT\NECSDKWRAPPER\INTERMEDIATE\RELEASE\VC142.PDB
^W:\CCT\CCTPROJECT\NECSDKWRAPPER\DDCCI\MYTRACE.CPP
W:\CCT\CCTPROJECT\NECSDKWRAPPER\INTERMEDIATE\RELEASE\VC142.PDB
^W:\CCT\CCTPROJECT\NECSDKWRAPPER\DDCCI\NMV_FACTORY_DDCCONTROL.CPP
W:\CCT\CCTPROJECT\NECSDKWRAPPER\INTERMEDIATE\RELEASE\VC142.PDB
^W:\CCT\CCTPROJECT\NECSDKWRAPPER\DDCCI\NMVDDCCONTROL.CPP
W:\CCT\CCTPROJECT\NECSDKWRAPPER\INTERMEDIATE\RELEASE\VC142.PDB
