^W:\CCT\CCTPROJECT\CMNAPIUTIL\STDAFX.CPP
/c /I..\COMMONFILES /I..\INCLUDE /I"W:\LIB\VCPKG-MASTER\SCRIPTS\BUILDSYSTEMS\MSBUILD\..\..\..\INSTALLED\X86-WINDOWS\INCLUDE" /Zi /nologo /W3 /WX- /diagnostics:column /Ox /Ob2 /Oi /Os /Oy /GT /GL /D LOG_ENABLED /D WIN32 /D NDEBUG /D _WINDOWS /D _USRDLL /D CMNAPIUTIL_EXPORTS /D _VC80_UPGRADE=0x0710 /D _UNICODE /D UNICODE /GF /Gm- /EHsc /MT /GS- /Gy /arch:IA32 /fp:precise /Zc:wchar_t /Zc:forScope /Zc:inline /Yc"stdafx.h" /Fp"RELEASE STATIC\CMNAPIUTIL.PCH" /Fo"RELEASE STATIC\\" /Fd"RELEASE STATIC\VC70.PDB" /Gd /TP /analyze- /FC W:\CCT\CCTPROJECT\CMNAPIUTIL\STDAFX.CPP
^W:\CCT\CCTPROJECT\CMNAPIUTIL\BACKUP.CPP
/c /I..\COMMONFILES /I..\INCLUDE /I"W:\LIB\VCPKG-MASTER\SCRIPTS\BUILDSYSTEMS\MSBUILD\..\..\..\INSTALLED\X86-WINDOWS\INCLUDE" /Zi /nologo /W3 /WX- /diagnostics:column /Ox /Ob2 /Oi /Os /Oy /GT /GL /D LOG_ENABLED /D WIN32 /D NDEBUG /D _WINDOWS /D _USRDLL /D CMNAPIUTIL_EXPORTS /D _VC80_UPGRADE=0x0710 /D _UNICODE /D UNICODE /GF /Gm- /EHsc /MT /GS- /Gy /arch:IA32 /fp:precise /Zc:wchar_t /Zc:forScope /Zc:inline /Yu"stdafx.h" /Fp"RELEASE STATIC\CMNAPIUTIL.PCH" /Fo"RELEASE STATIC\\" /Fd"RELEASE STATIC\VC70.PDB" /Gd /TP /analyze- /FC W:\CCT\CCTPROJECT\CMNAPIUTIL\BACKUP.CPP
^W:\CCT\CCTPROJECT\CMNAPIUTIL\CMNAPIUTIL.CPP
/c /I..\COMMONFILES /I..\INCLUDE /I"W:\LIB\VCPKG-MASTER\SCRIPTS\BUILDSYSTEMS\MSBUILD\..\..\..\INSTALLED\X86-WINDOWS\INCLUDE" /Zi /nologo /W3 /WX- /diagnostics:column /Ox /Ob2 /Oi /Os /Oy /GT /GL /D LOG_ENABLED /D WIN32 /D NDEBUG /D _WINDOWS /D _USRDLL /D CMNAPIUTIL_EXPORTS /D _VC80_UPGRADE=0x0710 /D _UNICODE /D UNICODE /GF /Gm- /EHsc /MT /GS- /Gy /arch:IA32 /fp:precise /Zc:wchar_t /Zc:forScope /Zc:inline /Yu"stdafx.h" /Fp"RELEASE STATIC\CMNAPIUTIL.PCH" /Fo"RELEASE STATIC\\" /Fd"RELEASE STATIC\VC70.PDB" /Gd /TP /analyze- /FC W:\CCT\CCTPROJECT\CMNAPIUTIL\CMNAPIUTIL.CPP
^W:\CCT\CCTPROJECT\CMNAPIUTIL\ERRORMESSAGE.CPP
/c /I..\COMMONFILES /I..\INCLUDE /I"W:\LIB\VCPKG-MASTER\SCRIPTS\BUILDSYSTEMS\MSBUILD\..\..\..\INSTALLED\X86-WINDOWS\INCLUDE" /Zi /nologo /W3 /WX- /diagnostics:column /Ox /Ob2 /Oi /Os /Oy /GT /GL /D LOG_ENABLED /D WIN32 /D NDEBUG /D _WINDOWS /D _USRDLL /D CMNAPIUTIL_EXPORTS /D _VC80_UPGRADE=0x0710 /D _UNICODE /D UNICODE /GF /Gm- /EHsc /MT /GS- /Gy /arch:IA32 /fp:precise /Zc:wchar_t /Zc:forScope /Zc:inline /Yu"stdafx.h" /Fp"RELEASE STATIC\CMNAPIUTIL.PCH" /Fo"RELEASE STATIC\\" /Fd"RELEASE STATIC\VC70.PDB" /Gd /TP /analyze- /FC W:\CCT\CCTPROJECT\CMNAPIUTIL\ERRORMESSAGE.CPP
^W:\CCT\CCTPROJECT\CMNAPIUTIL\FUNCTIONAPRROXIMATOR.CPP
/c /I..\COMMONFILES /I..\INCLUDE /I"W:\LIB\VCPKG-MASTER\SCRIPTS\BUILDSYSTEMS\MSBUILD\..\..\..\INSTALLED\X86-WINDOWS\INCLUDE" /Zi /nologo /W3 /WX- /diagnostics:column /Ox /Ob2 /Oi /Os /Oy /GT /GL /D LOG_ENABLED /D WIN32 /D NDEBUG /D _WINDOWS /D _USRDLL /D CMNAPIUTIL_EXPORTS /D _VC80_UPGRADE=0x0710 /D _UNICODE /D UNICODE /GF /Gm- /EHsc /MT /GS- /Gy /arch:IA32 /fp:precise /Zc:wchar_t /Zc:forScope /Zc:inline /Yu"stdafx.h" /Fp"RELEASE STATIC\CMNAPIUTIL.PCH" /Fo"RELEASE STATIC\\" /Fd"RELEASE STATIC\VC70.PDB" /Gd /TP /analyze- /FC W:\CCT\CCTPROJECT\CMNAPIUTIL\FUNCTIONAPRROXIMATOR.CPP
^W:\CCT\CCTPROJECT\CMNAPIUTIL\INCBACKUP.CPP
/c /I..\COMMONFILES /I..\INCLUDE /I"W:\LIB\VCPKG-MASTER\SCRIPTS\BUILDSYSTEMS\MSBUILD\..\..\..\INSTALLED\X86-WINDOWS\INCLUDE" /Zi /nologo /W3 /WX- /diagnostics:column /Ox /Ob2 /Oi /Os /Oy /GT /GL /D LOG_ENABLED /D WIN32 /D NDEBUG /D _WINDOWS /D _USRDLL /D CMNAPIUTIL_EXPORTS /D _VC80_UPGRADE=0x0710 /D _UNICODE /D UNICODE /GF /Gm- /EHsc /MT /GS- /Gy /arch:IA32 /fp:precise /Zc:wchar_t /Zc:forScope /Zc:inline /Yu"stdafx.h" /Fp"RELEASE STATIC\CMNAPIUTIL.PCH" /Fo"RELEASE STATIC\\" /Fd"RELEASE STATIC\VC70.PDB" /Gd /TP /analyze- /FC W:\CCT\CCTPROJECT\CMNAPIUTIL\INCBACKUP.CPP
^W:\CCT\CCTPROJECT\CMNAPIUTIL\KWAITCURSOR.CPP
/c /I..\COMMONFILES /I..\INCLUDE /I"W:\LIB\VCPKG-MASTER\SCRIPTS\BUILDSYSTEMS\MSBUILD\..\..\..\INSTALLED\X86-WINDOWS\INCLUDE" /Zi /nologo /W3 /WX- /diagnostics:column /Ox /Ob2 /Oi /Os /Oy /GT /GL /D LOG_ENABLED /D WIN32 /D NDEBUG /D _WINDOWS /D _USRDLL /D CMNAPIUTIL_EXPORTS /D _VC80_UPGRADE=0x0710 /D _UNICODE /D UNICODE /GF /Gm- /EHsc /MT /GS- /Gy /arch:IA32 /fp:precise /Zc:wchar_t /Zc:forScope /Zc:inline /Yu"stdafx.h" /Fp"RELEASE STATIC\CMNAPIUTIL.PCH" /Fo"RELEASE STATIC\\" /Fd"RELEASE STATIC\VC70.PDB" /Gd /TP /analyze- /FC W:\CCT\CCTPROJECT\CMNAPIUTIL\KWAITCURSOR.CPP
^W:\CCT\CCTPROJECT\CMNAPIUTIL\LEXER.CPP
/c /I..\COMMONFILES /I..\INCLUDE /I"W:\LIB\VCPKG-MASTER\SCRIPTS\BUILDSYSTEMS\MSBUILD\..\..\..\INSTALLED\X86-WINDOWS\INCLUDE" /Zi /nologo /W3 /WX- /diagnostics:column /Ox /Ob2 /Oi /Os /Oy /GT /GL /D LOG_ENABLED /D WIN32 /D NDEBUG /D _WINDOWS /D _USRDLL /D CMNAPIUTIL_EXPORTS /D _VC80_UPGRADE=0x0710 /D _UNICODE /D UNICODE /GF /Gm- /EHsc /MT /GS- /Gy /arch:IA32 /fp:precise /Zc:wchar_t /Zc:forScope /Zc:inline /Yu"stdafx.h" /Fp"RELEASE STATIC\CMNAPIUTIL.PCH" /Fo"RELEASE STATIC\\" /Fd"RELEASE STATIC\VC70.PDB" /Gd /TP /analyze- /FC W:\CCT\CCTPROJECT\CMNAPIUTIL\LEXER.CPP
^W:\CCT\CCTPROJECT\CMNAPIUTIL\LOG.CPP
/c /I..\COMMONFILES /I..\INCLUDE /I"W:\LIB\VCPKG-MASTER\SCRIPTS\BUILDSYSTEMS\MSBUILD\..\..\..\INSTALLED\X86-WINDOWS\INCLUDE" /Zi /nologo /W3 /WX- /diagnostics:column /Ox /Ob2 /Oi /Os /Oy /GT /GL /D LOG_ENABLED /D WIN32 /D NDEBUG /D _WINDOWS /D _USRDLL /D CMNAPIUTIL_EXPORTS /D _VC80_UPGRADE=0x0710 /D _UNICODE /D UNICODE /GF /Gm- /EHsc /MT /GS- /Gy /arch:IA32 /fp:precise /Zc:wchar_t /Zc:forScope /Zc:inline /Yu"stdafx.h" /Fp"RELEASE STATIC\CMNAPIUTIL.PCH" /Fo"RELEASE STATIC\\" /Fd"RELEASE STATIC\VC70.PDB" /Gd /TP /analyze- /FC W:\CCT\CCTPROJECT\CMNAPIUTIL\LOG.CPP
^W:\CCT\CCTPROJECT\CMNAPIUTIL\MAILSUPPORT.CPP
/c /I..\COMMONFILES /I..\INCLUDE /I"W:\LIB\VCPKG-MASTER\SCRIPTS\BUILDSYSTEMS\MSBUILD\..\..\..\INSTALLED\X86-WINDOWS\INCLUDE" /Zi /nologo /W3 /WX- /diagnostics:column /Ox /Ob2 /Oi /Os /Oy /GT /GL /D LOG_ENABLED /D WIN32 /D NDEBUG /D _WINDOWS /D _USRDLL /D CMNAPIUTIL_EXPORTS /D _VC80_UPGRADE=0x0710 /D _UNICODE /D UNICODE /GF /Gm- /EHsc /MT /GS- /Gy /arch:IA32 /fp:precise /Zc:wchar_t /Zc:forScope /Zc:inline /Yu"stdafx.h" /Fp"RELEASE STATIC\CMNAPIUTIL.PCH" /Fo"RELEASE STATIC\\" /Fd"RELEASE STATIC\VC70.PDB" /Gd /TP /analyze- /FC W:\CCT\CCTPROJECT\CMNAPIUTIL\MAILSUPPORT.CPP
^W:\CCT\CCTPROJECT\CMNAPIUTIL\MATHUTIL.CPP
/c /I..\COMMONFILES /I..\INCLUDE /I"W:\LIB\VCPKG-MASTER\SCRIPTS\BUILDSYSTEMS\MSBUILD\..\..\..\INSTALLED\X86-WINDOWS\INCLUDE" /Zi /nologo /W3 /WX- /diagnostics:column /Ox /Ob2 /Oi /Os /Oy /GT /GL /D LOG_ENABLED /D WIN32 /D NDEBUG /D _WINDOWS /D _USRDLL /D CMNAPIUTIL_EXPORTS /D _VC80_UPGRADE=0x0710 /D _UNICODE /D UNICODE /GF /Gm- /EHsc /MT /GS- /Gy /arch:IA32 /fp:precise /Zc:wchar_t /Zc:forScope /Zc:inline /Yu"stdafx.h" /Fp"RELEASE STATIC\CMNAPIUTIL.PCH" /Fo"RELEASE STATIC\\" /Fd"RELEASE STATIC\VC70.PDB" /Gd /TP /analyze- /FC W:\CCT\CCTPROJECT\CMNAPIUTIL\MATHUTIL.CPP
^W:\CCT\CCTPROJECT\CMNAPIUTIL\MATLABWRAPPER.CPP
/c /I..\COMMONFILES /I..\INCLUDE /I"W:\LIB\VCPKG-MASTER\SCRIPTS\BUILDSYSTEMS\MSBUILD\..\..\..\INSTALLED\X86-WINDOWS\INCLUDE" /Zi /nologo /W3 /WX- /diagnostics:column /Ox /Ob2 /Oi /Os /Oy /GT /GL /D LOG_ENABLED /D WIN32 /D NDEBUG /D _WINDOWS /D _USRDLL /D CMNAPIUTIL_EXPORTS /D _VC80_UPGRADE=0x0710 /D _UNICODE /D UNICODE /GF /Gm- /EHsc /MT /GS- /Gy /arch:IA32 /fp:precise /Zc:wchar_t /Zc:forScope /Zc:inline /Yu"stdafx.h" /Fp"RELEASE STATIC\CMNAPIUTIL.PCH" /Fo"RELEASE STATIC\\" /Fd"RELEASE STATIC\VC70.PDB" /Gd /TP /analyze- /FC W:\CCT\CCTPROJECT\CMNAPIUTIL\MATLABWRAPPER.CPP
^W:\CCT\CCTPROJECT\CMNAPIUTIL\MATRIXAPPROXIMATOR.CPP
/c /I..\COMMONFILES /I..\INCLUDE /I"W:\LIB\VCPKG-MASTER\SCRIPTS\BUILDSYSTEMS\MSBUILD\..\..\..\INSTALLED\X86-WINDOWS\INCLUDE" /Zi /nologo /W3 /WX- /diagnostics:column /Ox /Ob2 /Oi /Os /Oy /GT /GL /D LOG_ENABLED /D WIN32 /D NDEBUG /D _WINDOWS /D _USRDLL /D CMNAPIUTIL_EXPORTS /D _VC80_UPGRADE=0x0710 /D _UNICODE /D UNICODE /GF /Gm- /EHsc /MT /GS- /Gy /arch:IA32 /fp:precise /Zc:wchar_t /Zc:forScope /Zc:inline /Yu"stdafx.h" /Fp"RELEASE STATIC\CMNAPIUTIL.PCH" /Fo"RELEASE STATIC\\" /Fd"RELEASE STATIC\VC70.PDB" /Gd /TP /analyze- /FC W:\CCT\CCTPROJECT\CMNAPIUTIL\MATRIXAPPROXIMATOR.CPP
^W:\CCT\CCTPROJECT\CMNAPIUTIL\OUTLOG.CPP
/c /I..\COMMONFILES /I..\INCLUDE /I"W:\LIB\VCPKG-MASTER\SCRIPTS\BUILDSYSTEMS\MSBUILD\..\..\..\INSTALLED\X86-WINDOWS\INCLUDE" /Zi /nologo /W3 /WX- /diagnostics:column /Ox /Ob2 /Oi /Os /Oy /GT /GL /D LOG_ENABLED /D WIN32 /D NDEBUG /D _WINDOWS /D _USRDLL /D CMNAPIUTIL_EXPORTS /D _VC80_UPGRADE=0x0710 /D _UNICODE /D UNICODE /GF /Gm- /EHsc /MT /GS- /Gy /arch:IA32 /fp:precise /Zc:wchar_t /Zc:forScope /Zc:inline /Yu"stdafx.h" /Fp"RELEASE STATIC\CMNAPIUTIL.PCH" /Fo"RELEASE STATIC\\" /Fd"RELEASE STATIC\VC70.PDB" /Gd /TP /analyze- /FC W:\CCT\CCTPROJECT\CMNAPIUTIL\OUTLOG.CPP
^W:\CCT\CCTPROJECT\CMNAPIUTIL\RESIZEHELPER.CPP
/c /I..\COMMONFILES /I..\INCLUDE /I"W:\LIB\VCPKG-MASTER\SCRIPTS\BUILDSYSTEMS\MSBUILD\..\..\..\INSTALLED\X86-WINDOWS\INCLUDE" /Zi /nologo /W3 /WX- /diagnostics:column /Ox /Ob2 /Oi /Os /Oy /GT /GL /D LOG_ENABLED /D WIN32 /D NDEBUG /D _WINDOWS /D _USRDLL /D CMNAPIUTIL_EXPORTS /D _VC80_UPGRADE=0x0710 /D _UNICODE /D UNICODE /GF /Gm- /EHsc /MT /GS- /Gy /arch:IA32 /fp:precise /Zc:wchar_t /Zc:forScope /Zc:inline /Yu"stdafx.h" /Fp"RELEASE STATIC\CMNAPIUTIL.PCH" /Fo"RELEASE STATIC\\" /Fd"RELEASE STATIC\VC70.PDB" /Gd /TP /analyze- /FC W:\CCT\CCTPROJECT\CMNAPIUTIL\RESIZEHELPER.CPP
^W:\CCT\CCTPROJECT\CMNAPIUTIL\STACKRESIZE.CPP
/c /I..\COMMONFILES /I..\INCLUDE /I"W:\LIB\VCPKG-MASTER\SCRIPTS\BUILDSYSTEMS\MSBUILD\..\..\..\INSTALLED\X86-WINDOWS\INCLUDE" /Zi /nologo /W3 /WX- /diagnostics:column /Ox /Ob2 /Oi /Os /Oy /GT /GL /D LOG_ENABLED /D WIN32 /D NDEBUG /D _WINDOWS /D _USRDLL /D CMNAPIUTIL_EXPORTS /D _VC80_UPGRADE=0x0710 /D _UNICODE /D UNICODE /GF /Gm- /EHsc /MT /GS- /Gy /arch:IA32 /fp:precise /Zc:wchar_t /Zc:forScope /Zc:inline /Yu"stdafx.h" /Fp"RELEASE STATIC\CMNAPIUTIL.PCH" /Fo"RELEASE STATIC\\" /Fd"RELEASE STATIC\VC70.PDB" /Gd /TP /analyze- /FC W:\CCT\CCTPROJECT\CMNAPIUTIL\STACKRESIZE.CPP
^W:\CCT\CCTPROJECT\CMNAPIUTIL\TRAYICON.CPP
/c /I..\COMMONFILES /I..\INCLUDE /I"W:\LIB\VCPKG-MASTER\SCRIPTS\BUILDSYSTEMS\MSBUILD\..\..\..\INSTALLED\X86-WINDOWS\INCLUDE" /Zi /nologo /W3 /WX- /diagnostics:column /Ox /Ob2 /Oi /Os /Oy /GT /GL /D LOG_ENABLED /D WIN32 /D NDEBUG /D _WINDOWS /D _USRDLL /D CMNAPIUTIL_EXPORTS /D _VC80_UPGRADE=0x0710 /D _UNICODE /D UNICODE /GF /Gm- /EHsc /MT /GS- /Gy /arch:IA32 /fp:precise /Zc:wchar_t /Zc:forScope /Zc:inline /Yu"stdafx.h" /Fp"RELEASE STATIC\CMNAPIUTIL.PCH" /Fo"RELEASE STATIC\\" /Fd"RELEASE STATIC\VC70.PDB" /Gd /TP /analyze- /FC W:\CCT\CCTPROJECT\CMNAPIUTIL\TRAYICON.CPP
^W:\CCT\CCTPROJECT\CMNAPIUTIL\UTILBROWSE.CPP
/c /I..\COMMONFILES /I..\INCLUDE /I"W:\LIB\VCPKG-MASTER\SCRIPTS\BUILDSYSTEMS\MSBUILD\..\..\..\INSTALLED\X86-WINDOWS\INCLUDE" /Zi /nologo /W3 /WX- /diagnostics:column /Ox /Ob2 /Oi /Os /Oy /GT /GL /D LOG_ENABLED /D WIN32 /D NDEBUG /D _WINDOWS /D _USRDLL /D CMNAPIUTIL_EXPORTS /D _VC80_UPGRADE=0x0710 /D _UNICODE /D UNICODE /GF /Gm- /EHsc /MT /GS- /Gy /arch:IA32 /fp:precise /Zc:wchar_t /Zc:forScope /Zc:inline /Yu"stdafx.h" /Fp"RELEASE STATIC\CMNAPIUTIL.PCH" /Fo"RELEASE STATIC\\" /Fd"RELEASE STATIC\VC70.PDB" /Gd /TP /analyze- /FC W:\CCT\CCTPROJECT\CMNAPIUTIL\UTILBROWSE.CPP
^W:\CCT\CCTPROJECT\CMNAPIUTIL\UTILBROWSEEX.CPP
/c /I..\COMMONFILES /I..\INCLUDE /I"W:\LIB\VCPKG-MASTER\SCRIPTS\BUILDSYSTEMS\MSBUILD\..\..\..\INSTALLED\X86-WINDOWS\INCLUDE" /Zi /nologo /W3 /WX- /diagnostics:column /Ox /Ob2 /Oi /Os /Oy /GT /GL /D LOG_ENABLED /D WIN32 /D NDEBUG /D _WINDOWS /D _USRDLL /D CMNAPIUTIL_EXPORTS /D _VC80_UPGRADE=0x0710 /D _UNICODE /D UNICODE /GF /Gm- /EHsc /MT /GS- /Gy /arch:IA32 /fp:precise /Zc:wchar_t /Zc:forScope /Zc:inline /Yu"stdafx.h" /Fp"RELEASE STATIC\CMNAPIUTIL.PCH" /Fo"RELEASE STATIC\\" /Fd"RELEASE STATIC\VC70.PDB" /Gd /TP /analyze- /FC W:\CCT\CCTPROJECT\CMNAPIUTIL\UTILBROWSEEX.CPP
^W:\CCT\CCTPROJECT\CMNAPIUTIL\UTILCREATEWND.CPP
/c /I..\COMMONFILES /I..\INCLUDE /I"W:\LIB\VCPKG-MASTER\SCRIPTS\BUILDSYSTEMS\MSBUILD\..\..\..\INSTALLED\X86-WINDOWS\INCLUDE" /Zi /nologo /W3 /WX- /diagnostics:column /Ox /Ob2 /Oi /Os /Oy /GT /GL /D LOG_ENABLED /D WIN32 /D NDEBUG /D _WINDOWS /D _USRDLL /D CMNAPIUTIL_EXPORTS /D _VC80_UPGRADE=0x0710 /D _UNICODE /D UNICODE /GF /Gm- /EHsc /MT /GS- /Gy /arch:IA32 /fp:precise /Zc:wchar_t /Zc:forScope /Zc:inline /Yu"stdafx.h" /Fp"RELEASE STATIC\CMNAPIUTIL.PCH" /Fo"RELEASE STATIC\\" /Fd"RELEASE STATIC\VC70.PDB" /Gd /TP /analyze- /FC W:\CCT\CCTPROJECT\CMNAPIUTIL\UTILCREATEWND.CPP
^W:\CCT\CCTPROJECT\CMNAPIUTIL\UTILDISK.CPP
/c /I..\COMMONFILES /I..\INCLUDE /I"W:\LIB\VCPKG-MASTER\SCRIPTS\BUILDSYSTEMS\MSBUILD\..\..\..\INSTALLED\X86-WINDOWS\INCLUDE" /Zi /nologo /W3 /WX- /diagnostics:column /Ox /Ob2 /Oi /Os /Oy /GT /GL /D LOG_ENABLED /D WIN32 /D NDEBUG /D _WINDOWS /D _USRDLL /D CMNAPIUTIL_EXPORTS /D _VC80_UPGRADE=0x0710 /D _UNICODE /D UNICODE /GF /Gm- /EHsc /MT /GS- /Gy /arch:IA32 /fp:precise /Zc:wchar_t /Zc:forScope /Zc:inline /Yu"stdafx.h" /Fp"RELEASE STATIC\CMNAPIUTIL.PCH" /Fo"RELEASE STATIC\\" /Fd"RELEASE STATIC\VC70.PDB" /Gd /TP /analyze- /FC W:\CCT\CCTPROJECT\CMNAPIUTIL\UTILDISK.CPP
^W:\CCT\CCTPROJECT\CMNAPIUTIL\UTILFILE.CPP
/c /I..\COMMONFILES /I..\INCLUDE /I"W:\LIB\VCPKG-MASTER\SCRIPTS\BUILDSYSTEMS\MSBUILD\..\..\..\INSTALLED\X86-WINDOWS\INCLUDE" /Zi /nologo /W3 /WX- /diagnostics:column /Ox /Ob2 /Oi /Os /Oy /GT /GL /D LOG_ENABLED /D WIN32 /D NDEBUG /D _WINDOWS /D _USRDLL /D CMNAPIUTIL_EXPORTS /D _VC80_UPGRADE=0x0710 /D _UNICODE /D UNICODE /GF /Gm- /EHsc /MT /GS- /Gy /arch:IA32 /fp:precise /Zc:wchar_t /Zc:forScope /Zc:inline /Yu"stdafx.h" /Fp"RELEASE STATIC\CMNAPIUTIL.PCH" /Fo"RELEASE STATIC\\" /Fd"RELEASE STATIC\VC70.PDB" /Gd /TP /analyze- /FC W:\CCT\CCTPROJECT\CMNAPIUTIL\UTILFILE.CPP
^W:\CCT\CCTPROJECT\CMNAPIUTIL\UTILIMAGELIST.CPP
/c /I..\COMMONFILES /I..\INCLUDE /I"W:\LIB\VCPKG-MASTER\SCRIPTS\BUILDSYSTEMS\MSBUILD\..\..\..\INSTALLED\X86-WINDOWS\INCLUDE" /Zi /nologo /W3 /WX- /diagnostics:column /Ox /Ob2 /Oi /Os /Oy /GT /GL /D LOG_ENABLED /D WIN32 /D NDEBUG /D _WINDOWS /D _USRDLL /D CMNAPIUTIL_EXPORTS /D _VC80_UPGRADE=0x0710 /D _UNICODE /D UNICODE /GF /Gm- /EHsc /MT /GS- /Gy /arch:IA32 /fp:precise /Zc:wchar_t /Zc:forScope /Zc:inline /Yu"stdafx.h" /Fp"RELEASE STATIC\CMNAPIUTIL.PCH" /Fo"RELEASE STATIC\\" /Fd"RELEASE STATIC\VC70.PDB" /Gd /TP /analyze- /FC W:\CCT\CCTPROJECT\CMNAPIUTIL\UTILIMAGELIST.CPP
^W:\CCT\CCTPROJECT\CMNAPIUTIL\UTILINI.CPP
/c /I..\COMMONFILES /I..\INCLUDE /I"W:\LIB\VCPKG-MASTER\SCRIPTS\BUILDSYSTEMS\MSBUILD\..\..\..\INSTALLED\X86-WINDOWS\INCLUDE" /Zi /nologo /W3 /WX- /diagnostics:column /Ox /Ob2 /Oi /Os /Oy /GT /GL /D LOG_ENABLED /D WIN32 /D NDEBUG /D _WINDOWS /D _USRDLL /D CMNAPIUTIL_EXPORTS /D _VC80_UPGRADE=0x0710 /D _UNICODE /D UNICODE /GF /Gm- /EHsc /MT /GS- /Gy /arch:IA32 /fp:precise /Zc:wchar_t /Zc:forScope /Zc:inline /Yu"stdafx.h" /Fp"RELEASE STATIC\CMNAPIUTIL.PCH" /Fo"RELEASE STATIC\\" /Fd"RELEASE STATIC\VC70.PDB" /Gd /TP /analyze- /FC W:\CCT\CCTPROJECT\CMNAPIUTIL\UTILINI.CPP
^W:\CCT\CCTPROJECT\CMNAPIUTIL\UTILINIWRITER.CPP
/c /I..\COMMONFILES /I..\INCLUDE /I"W:\LIB\VCPKG-MASTER\SCRIPTS\BUILDSYSTEMS\MSBUILD\..\..\..\INSTALLED\X86-WINDOWS\INCLUDE" /Zi /nologo /W3 /WX- /diagnostics:column /Ox /Ob2 /Oi /Os /Oy /GT /GL /D LOG_ENABLED /D WIN32 /D NDEBUG /D _WINDOWS /D _USRDLL /D CMNAPIUTIL_EXPORTS /D _VC80_UPGRADE=0x0710 /D _UNICODE /D UNICODE /GF /Gm- /EHsc /MT /GS- /Gy /arch:IA32 /fp:precise /Zc:wchar_t /Zc:forScope /Zc:inline /Yu"stdafx.h" /Fp"RELEASE STATIC\CMNAPIUTIL.PCH" /Fo"RELEASE STATIC\\" /Fd"RELEASE STATIC\VC70.PDB" /Gd /TP /analyze- /FC W:\CCT\CCTPROJECT\CMNAPIUTIL\UTILINIWRITER.CPP
^W:\CCT\CCTPROJECT\CMNAPIUTIL\UTILPATH.CPP
/c /I..\COMMONFILES /I..\INCLUDE /I"W:\LIB\VCPKG-MASTER\SCRIPTS\BUILDSYSTEMS\MSBUILD\..\..\..\INSTALLED\X86-WINDOWS\INCLUDE" /Zi /nologo /W3 /WX- /diagnostics:column /Ox /Ob2 /Oi /Os /Oy /GT /GL /D LOG_ENABLED /D WIN32 /D NDEBUG /D _WINDOWS /D _USRDLL /D CMNAPIUTIL_EXPORTS /D _VC80_UPGRADE=0x0710 /D _UNICODE /D UNICODE /GF /Gm- /EHsc /MT /GS- /Gy /arch:IA32 /fp:precise /Zc:wchar_t /Zc:forScope /Zc:inline /Yu"stdafx.h" /Fp"RELEASE STATIC\CMNAPIUTIL.PCH" /Fo"RELEASE STATIC\\" /Fd"RELEASE STATIC\VC70.PDB" /Gd /TP /analyze- /FC W:\CCT\CCTPROJECT\CMNAPIUTIL\UTILPATH.CPP
^W:\CCT\CCTPROJECT\CMNAPIUTIL\UTILPROCESS.CPP
/c /I..\COMMONFILES /I..\INCLUDE /I"W:\LIB\VCPKG-MASTER\SCRIPTS\BUILDSYSTEMS\MSBUILD\..\..\..\INSTALLED\X86-WINDOWS\INCLUDE" /Zi /nologo /W3 /WX- /diagnostics:column /Ox /Ob2 /Oi /Os /Oy /GT /GL /D LOG_ENABLED /D WIN32 /D NDEBUG /D _WINDOWS /D _USRDLL /D CMNAPIUTIL_EXPORTS /D _VC80_UPGRADE=0x0710 /D _UNICODE /D UNICODE /GF /Gm- /EHsc /MT /GS- /Gy /arch:IA32 /fp:precise /Zc:wchar_t /Zc:forScope /Zc:inline /Yu"stdafx.h" /Fp"RELEASE STATIC\CMNAPIUTIL.PCH" /Fo"RELEASE STATIC\\" /Fd"RELEASE STATIC\VC70.PDB" /Gd /TP /analyze- /FC W:\CCT\CCTPROJECT\CMNAPIUTIL\UTILPROCESS.CPP
^W:\CCT\CCTPROJECT\CMNAPIUTIL\UTILSCROLLBAR.CPP
/c /I..\COMMONFILES /I..\INCLUDE /I"W:\LIB\VCPKG-MASTER\SCRIPTS\BUILDSYSTEMS\MSBUILD\..\..\..\INSTALLED\X86-WINDOWS\INCLUDE" /Zi /nologo /W3 /WX- /diagnostics:column /Ox /Ob2 /Oi /Os /Oy /GT /GL /D LOG_ENABLED /D WIN32 /D NDEBUG /D _WINDOWS /D _USRDLL /D CMNAPIUTIL_EXPORTS /D _VC80_UPGRADE=0x0710 /D _UNICODE /D UNICODE /GF /Gm- /EHsc /MT /GS- /Gy /arch:IA32 /fp:precise /Zc:wchar_t /Zc:forScope /Zc:inline /Yu"stdafx.h" /Fp"RELEASE STATIC\CMNAPIUTIL.PCH" /Fo"RELEASE STATIC\\" /Fd"RELEASE STATIC\VC70.PDB" /Gd /TP /analyze- /FC W:\CCT\CCTPROJECT\CMNAPIUTIL\UTILSCROLLBAR.CPP
^W:\CCT\CCTPROJECT\CMNAPIUTIL\UTILSEARCHFILE.CPP
/c /I..\COMMONFILES /I..\INCLUDE /I"W:\LIB\VCPKG-MASTER\SCRIPTS\BUILDSYSTEMS\MSBUILD\..\..\..\INSTALLED\X86-WINDOWS\INCLUDE" /Zi /nologo /W3 /WX- /diagnostics:column /Ox /Ob2 /Oi /Os /Oy /GT /GL /D LOG_ENABLED /D WIN32 /D NDEBUG /D _WINDOWS /D _USRDLL /D CMNAPIUTIL_EXPORTS /D _VC80_UPGRADE=0x0710 /D _UNICODE /D UNICODE /GF /Gm- /EHsc /MT /GS- /Gy /arch:IA32 /fp:precise /Zc:wchar_t /Zc:forScope /Zc:inline /Yu"stdafx.h" /Fp"RELEASE STATIC\CMNAPIUTIL.PCH" /Fo"RELEASE STATIC\\" /Fd"RELEASE STATIC\VC70.PDB" /Gd /TP /analyze- /FC W:\CCT\CCTPROJECT\CMNAPIUTIL\UTILSEARCHFILE.CPP
^W:\CCT\CCTPROJECT\CMNAPIUTIL\UTILSLIDERCTRL.CPP
/c /I..\COMMONFILES /I..\INCLUDE /I"W:\LIB\VCPKG-MASTER\SCRIPTS\BUILDSYSTEMS\MSBUILD\..\..\..\INSTALLED\X86-WINDOWS\INCLUDE" /Zi /nologo /W3 /WX- /diagnostics:column /Ox /Ob2 /Oi /Os /Oy /GT /GL /D LOG_ENABLED /D WIN32 /D NDEBUG /D _WINDOWS /D _USRDLL /D CMNAPIUTIL_EXPORTS /D _VC80_UPGRADE=0x0710 /D _UNICODE /D UNICODE /GF /Gm- /EHsc /MT /GS- /Gy /arch:IA32 /fp:precise /Zc:wchar_t /Zc:forScope /Zc:inline /Yu"stdafx.h" /Fp"RELEASE STATIC\CMNAPIUTIL.PCH" /Fo"RELEASE STATIC\\" /Fd"RELEASE STATIC\VC70.PDB" /Gd /TP /analyze- /FC W:\CCT\CCTPROJECT\CMNAPIUTIL\UTILSLIDERCTRL.CPP
^W:\CCT\CCTPROJECT\CMNAPIUTIL\UTILSTR.CPP
/c /I..\COMMONFILES /I..\INCLUDE /I"W:\LIB\VCPKG-MASTER\SCRIPTS\BUILDSYSTEMS\MSBUILD\..\..\..\INSTALLED\X86-WINDOWS\INCLUDE" /Zi /nologo /W3 /WX- /diagnostics:column /Ox /Ob2 /Oi /Os /Oy /GT /GL /D LOG_ENABLED /D WIN32 /D NDEBUG /D _WINDOWS /D _USRDLL /D CMNAPIUTIL_EXPORTS /D _VC80_UPGRADE=0x0710 /D _UNICODE /D UNICODE /GF /Gm- /EHsc /MT /GS- /Gy /arch:IA32 /fp:precise /Zc:wchar_t /Zc:forScope /Zc:inline /Yu"stdafx.h" /Fp"RELEASE STATIC\CMNAPIUTIL.PCH" /Fo"RELEASE STATIC\\" /Fd"RELEASE STATIC\VC70.PDB" /Gd /TP /analyze- /FC W:\CCT\CCTPROJECT\CMNAPIUTIL\UTILSTR.CPP
^W:\CCT\CCTPROJECT\CMNAPIUTIL\UTILTABCTRL.CPP
/c /I..\COMMONFILES /I..\INCLUDE /I"W:\LIB\VCPKG-MASTER\SCRIPTS\BUILDSYSTEMS\MSBUILD\..\..\..\INSTALLED\X86-WINDOWS\INCLUDE" /Zi /nologo /W3 /WX- /diagnostics:column /Ox /Ob2 /Oi /Os /Oy /GT /GL /D LOG_ENABLED /D WIN32 /D NDEBUG /D _WINDOWS /D _USRDLL /D CMNAPIUTIL_EXPORTS /D _VC80_UPGRADE=0x0710 /D _UNICODE /D UNICODE /GF /Gm- /EHsc /MT /GS- /Gy /arch:IA32 /fp:precise /Zc:wchar_t /Zc:forScope /Zc:inline /Yu"stdafx.h" /Fp"RELEASE STATIC\CMNAPIUTIL.PCH" /Fo"RELEASE STATIC\\" /Fd"RELEASE STATIC\VC70.PDB" /Gd /TP /analyze- /FC W:\CCT\CCTPROJECT\CMNAPIUTIL\UTILTABCTRL.CPP
^W:\CCT\CCTPROJECT\CMNAPIUTIL\UTILTEXT.CPP
/c /I..\COMMONFILES /I..\INCLUDE /I"W:\LIB\VCPKG-MASTER\SCRIPTS\BUILDSYSTEMS\MSBUILD\..\..\..\INSTALLED\X86-WINDOWS\INCLUDE" /Zi /nologo /W3 /WX- /diagnostics:column /Ox /Ob2 /Oi /Os /Oy /GT /GL /D LOG_ENABLED /D WIN32 /D NDEBUG /D _WINDOWS /D _USRDLL /D CMNAPIUTIL_EXPORTS /D _VC80_UPGRADE=0x0710 /D _UNICODE /D UNICODE /GF /Gm- /EHsc /MT /GS- /Gy /arch:IA32 /fp:precise /Zc:wchar_t /Zc:forScope /Zc:inline /Yu"stdafx.h" /Fp"RELEASE STATIC\CMNAPIUTIL.PCH" /Fo"RELEASE STATIC\\" /Fd"RELEASE STATIC\VC70.PDB" /Gd /TP /analyze- /FC W:\CCT\CCTPROJECT\CMNAPIUTIL\UTILTEXT.CPP
^W:\CCT\CCTPROJECT\CMNAPIUTIL\UTILWND.CPP
/c /I..\COMMONFILES /I..\INCLUDE /I"W:\LIB\VCPKG-MASTER\SCRIPTS\BUILDSYSTEMS\MSBUILD\..\..\..\INSTALLED\X86-WINDOWS\INCLUDE" /Zi /nologo /W3 /WX- /diagnostics:column /Ox /Ob2 /Oi /Os /Oy /GT /GL /D LOG_ENABLED /D WIN32 /D NDEBUG /D _WINDOWS /D _USRDLL /D CMNAPIUTIL_EXPORTS /D _VC80_UPGRADE=0x0710 /D _UNICODE /D UNICODE /GF /Gm- /EHsc /MT /GS- /Gy /arch:IA32 /fp:precise /Zc:wchar_t /Zc:forScope /Zc:inline /Yu"stdafx.h" /Fp"RELEASE STATIC\CMNAPIUTIL.PCH" /Fo"RELEASE STATIC\\" /Fd"RELEASE STATIC\VC70.PDB" /Gd /TP /analyze- /FC W:\CCT\CCTPROJECT\CMNAPIUTIL\UTILWND.CPP
^W:\CCT\CCTPROJECT\CMNAPIUTIL\WINCONTROLUTILS.CPP
/c /I..\COMMONFILES /I..\INCLUDE /I"W:\LIB\VCPKG-MASTER\SCRIPTS\BUILDSYSTEMS\MSBUILD\..\..\..\INSTALLED\X86-WINDOWS\INCLUDE" /Zi /nologo /W3 /WX- /diagnostics:column /Ox /Ob2 /Oi /Os /Oy /GT /GL /D LOG_ENABLED /D WIN32 /D NDEBUG /D _WINDOWS /D _USRDLL /D CMNAPIUTIL_EXPORTS /D _VC80_UPGRADE=0x0710 /D _UNICODE /D UNICODE /GF /Gm- /EHsc /MT /GS- /Gy /arch:IA32 /fp:precise /Zc:wchar_t /Zc:forScope /Zc:inline /Yu"stdafx.h" /Fp"RELEASE STATIC\CMNAPIUTIL.PCH" /Fo"RELEASE STATIC\\" /Fd"RELEASE STATIC\VC70.PDB" /Gd /TP /analyze- /FC W:\CCT\CCTPROJECT\CMNAPIUTIL\WINCONTROLUTILS.CPP
^W:\CCT\CCTPROJECT\CMNAPIUTIL\WNDSTORAGE.CPP
/c /I..\COMMONFILES /I..\INCLUDE /I"W:\LIB\VCPKG-MASTER\SCRIPTS\BUILDSYSTEMS\MSBUILD\..\..\..\INSTALLED\X86-WINDOWS\INCLUDE" /Zi /nologo /W3 /WX- /diagnostics:column /Ox /Ob2 /Oi /Os /Oy /GT /GL /D LOG_ENABLED /D WIN32 /D NDEBUG /D _WINDOWS /D _USRDLL /D CMNAPIUTIL_EXPORTS /D _VC80_UPGRADE=0x0710 /D _UNICODE /D UNICODE /GF /Gm- /EHsc /MT /GS- /Gy /arch:IA32 /fp:precise /Zc:wchar_t /Zc:forScope /Zc:inline /Yu"stdafx.h" /Fp"RELEASE STATIC\CMNAPIUTIL.PCH" /Fo"RELEASE STATIC\\" /Fd"RELEASE STATIC\VC70.PDB" /Gd /TP /analyze- /FC W:\CCT\CCTPROJECT\CMNAPIUTIL\WNDSTORAGE.CPP
^W:\CCT\CCTPROJECT\CMNAPIUTIL\EXESTARTER.CPP
/c /I..\COMMONFILES /I..\INCLUDE /I"W:\LIB\VCPKG-MASTER\SCRIPTS\BUILDSYSTEMS\MSBUILD\..\..\..\INSTALLED\X86-WINDOWS\INCLUDE" /Zi /nologo /W3 /WX- /diagnostics:column /Ox /Ob2 /Oi /Os /Oy /GT /GL /D LOG_ENABLED /D WIN32 /D NDEBUG /D _WINDOWS /D _USRDLL /D CMNAPIUTIL_EXPORTS /D _VC80_UPGRADE=0x0710 /D _UNICODE /D UNICODE /GF /Gm- /EHsc /MT /GS- /Gy /arch:IA32 /fp:precise /Zc:wchar_t /Zc:forScope /Zc:inline /Yu"stdafx.h" /Fp"RELEASE STATIC\CMNAPIUTIL.PCH" /Fo"RELEASE STATIC\\" /Fd"RELEASE STATIC\VC70.PDB" /Gd /TP /analyze- /FC W:\CCT\CCTPROJECT\CMNAPIUTIL\EXESTARTER.CPP
