^W:\CCT\CCTPROJECT\CMNAPIUTIL\STDAFX.CPP
W:\CCT\CCTPROJECT\CMNAPIUTIL\RELEASE STATIC\CMNAPIUTIL.PCH
W:\CCT\CCTPROJECT\CMNAPIUTIL\RELEASE STATIC\VC70.PDB
W:\CCT\CCTPROJECT\CMNAPIUTIL\RELEASE STATIC\STDAFX.OBJ
^W:\CCT\CCTPROJECT\CMNAPIUTIL\BACKUP.CPP|W:\CCT\CCTPROJECT\CMNAPIUTIL\CMNAPIUTIL.CPP|W:\CCT\CCTPROJECT\CMNAPIUTIL\ERRORMESSAGE.CPP|W:\CCT\CCTPROJECT\CMNAPIUTIL\EXESTARTER.CPP|W:\CCT\CCTPROJECT\CMNAPIUTIL\FUNCTIONAPRROXIMATOR.CPP|W:\CCT\CCTPROJECT\CMNAPIUTIL\INCBACKUP.CPP|W:\CCT\CCTPROJECT\CMNAPIUTIL\KWAITCURSOR.CPP|W:\CCT\CCTPROJECT\CMNAPIUTIL\LEXER.CPP|W:\CCT\CCTPROJECT\CMNAPIUTIL\LOG.CPP|W:\CCT\CCTPROJECT\CMNAPIUTIL\MAILSUPPORT.CPP|W:\CCT\CCTPROJECT\CMNAPIUTIL\MATHUTIL.CPP|W:\CCT\CCTPROJECT\CMNAPIUTIL\MATLABWRAPPER.CPP|W:\CCT\CCTPROJECT\CMNAPIUTIL\MATRIXAPPROXIMATOR.CPP|W:\CCT\CCTPROJECT\CMNAPIUTIL\OUTLOG.CPP|W:\CCT\CCTPROJECT\CMNAPIUTIL\RESIZEHELPER.CPP|W:\CCT\CCTPROJECT\CMNAPIUTIL\STACKRESIZE.CPP|W:\CCT\CCTPROJECT\CMNAPIUTIL\TRAYICON.CPP|W:\CCT\CCTPROJECT\CMNAPIUTIL\UTILBROWSE.CPP|W:\CCT\CCTPROJECT\CMNAPIUTIL\UTILBROWSEEX.CPP|W:\CCT\CCTPROJECT\CMNAPIUTIL\UTILCREATEWND.CPP|W:\CCT\CCTPROJECT\CMNAPIUTIL\UTILDISK.CPP|W:\CCT\CCTPROJECT\CMNAPIUTIL\UTILFILE.CPP|W:\CCT\CCTPROJECT\CMNAPIUTIL\UTILIMAGELIST.CPP|W:\CCT\CCTPROJECT\CMNAPIUTIL\UTILINI.CPP|W:\CCT\CCTPROJECT\CMNAPIUTIL\UTILINIWRITER.CPP|W:\CCT\CCTPROJECT\CMNAPIUTIL\UTILPATH.CPP|W:\CCT\CCTPROJECT\CMNAPIUTIL\UTILPROCESS.CPP|W:\CCT\CCTPROJECT\CMNAPIUTIL\UTILSCROLLBAR.CPP|W:\CCT\CCTPROJECT\CMNAPIUTIL\UTILSEARCHFILE.CPP|W:\CCT\CCTPROJECT\CMNAPIUTIL\UTILSLIDERCTRL.CPP|W:\CCT\CCTPROJECT\CMNAPIUTIL\UTILSTR.CPP|W:\CCT\CCTPROJECT\CMNAPIUTIL\UTILTABCTRL.CPP|W:\CCT\CCTPROJECT\CMNAPIUTIL\UTILTEXT.CPP|W:\CCT\CCTPROJECT\CMNAPIUTIL\UTILWND.CPP|W:\CCT\CCTPROJECT\CMNAPIUTIL\WINCONTROLUTILS.CPP|W:\CCT\CCTPROJECT\CMNAPIUTIL\WNDSTORAGE.CPP
W:\CCT\CCTPROJECT\CMNAPIUTIL\RELEASE STATIC\VC70.PDB
W:\CCT\CCTPROJECT\CMNAPIUTIL\RELEASE STATIC\UTILCREATEWND.OBJ
W:\CCT\CCTPROJECT\CMNAPIUTIL\RELEASE STATIC\UTILBROWSEEX.OBJ
W:\CCT\CCTPROJECT\CMNAPIUTIL\RELEASE STATIC\UTILBROWSE.OBJ
W:\CCT\CCTPROJECT\CMNAPIUTIL\RELEASE STATIC\TRAYICON.OBJ
W:\CCT\CCTPROJECT\CMNAPIUTIL\RELEASE STATIC\STACKRESIZE.OBJ
W:\CCT\CCTPROJECT\CMNAPIUTIL\RELEASE STATIC\RESIZEHELPER.OBJ
W:\CCT\CCTPROJECT\CMNAPIUTIL\RELEASE STATIC\OUTLOG.OBJ
W:\CCT\CCTPROJECT\CMNAPIUTIL\RELEASE STATIC\MATRIXAPPROXIMATOR.OBJ
W:\CCT\CCTPROJECT\CMNAPIUTIL\RELEASE STATIC\MATLABWRAPPER.OBJ
W:\CCT\CCTPROJECT\CMNAPIUTIL\RELEASE STATIC\MATHUTIL.OBJ
W:\CCT\CCTPROJECT\CMNAPIUTIL\RELEASE STATIC\MAILSUPPORT.OBJ
W:\CCT\CCTPROJECT\CMNAPIUTIL\RELEASE STATIC\LOG.OBJ
W:\CCT\CCTPROJECT\CMNAPIUTIL\RELEASE STATIC\LEXER.OBJ
W:\CCT\CCTPROJECT\CMNAPIUTIL\RELEASE STATIC\KWAITCURSOR.OBJ
W:\CCT\CCTPROJECT\CMNAPIUTIL\RELEASE STATIC\INCBACKUP.OBJ
W:\CCT\CCTPROJECT\CMNAPIUTIL\RELEASE STATIC\FUNCTIONAPRROXIMATOR.OBJ
W:\CCT\CCTPROJECT\CMNAPIUTIL\RELEASE STATIC\EXESTARTER.OBJ
W:\CCT\CCTPROJECT\CMNAPIUTIL\RELEASE STATIC\ERRORMESSAGE.OBJ
W:\CCT\CCTPROJECT\CMNAPIUTIL\RELEASE STATIC\CMNAPIUTIL.OBJ
W:\CCT\CCTPROJECT\CMNAPIUTIL\RELEASE STATIC\BACKUP.OBJ
W:\CCT\CCTPROJECT\CMNAPIUTIL\RELEASE STATIC\WNDSTORAGE.OBJ
W:\CCT\CCTPROJECT\CMNAPIUTIL\RELEASE STATIC\WINCONTROLUTILS.OBJ
W:\CCT\CCTPROJECT\CMNAPIUTIL\RELEASE STATIC\UTILWND.OBJ
W:\CCT\CCTPROJECT\CMNAPIUTIL\RELEASE STATIC\UTILTEXT.OBJ
W:\CCT\CCTPROJECT\CMNAPIUTIL\RELEASE STATIC\UTILTABCTRL.OBJ
W:\CCT\CCTPROJECT\CMNAPIUTIL\RELEASE STATIC\UTILSTR.OBJ
W:\CCT\CCTPROJECT\CMNAPIUTIL\RELEASE STATIC\UTILSLIDERCTRL.OBJ
W:\CCT\CCTPROJECT\CMNAPIUTIL\RELEASE STATIC\UTILSEARCHFILE.OBJ
W:\CCT\CCTPROJECT\CMNAPIUTIL\RELEASE STATIC\UTILSCROLLBAR.OBJ
W:\CCT\CCTPROJECT\CMNAPIUTIL\RELEASE STATIC\UTILPROCESS.OBJ
W:\CCT\CCTPROJECT\CMNAPIUTIL\RELEASE STATIC\UTILPATH.OBJ
W:\CCT\CCTPROJECT\CMNAPIUTIL\RELEASE STATIC\UTILINIWRITER.OBJ
W:\CCT\CCTPROJECT\CMNAPIUTIL\RELEASE STATIC\UTILINI.OBJ
W:\CCT\CCTPROJECT\CMNAPIUTIL\RELEASE STATIC\UTILIMAGELIST.OBJ
W:\CCT\CCTPROJECT\CMNAPIUTIL\RELEASE STATIC\UTILFILE.OBJ
W:\CCT\CCTPROJECT\CMNAPIUTIL\RELEASE STATIC\UTILDISK.OBJ
^W:\CCT\CCTPROJECT\CMNAPIUTIL\BACKUP.CPP
W:\CCT\CCTPROJECT\CMNAPIUTIL\RELEASE STATIC\VC70.PDB
^W:\CCT\CCTPROJECT\CMNAPIUTIL\CMNAPIUTIL.CPP
W:\CCT\CCTPROJECT\CMNAPIUTIL\RELEASE STATIC\VC70.PDB
^W:\CCT\CCTPROJECT\CMNAPIUTIL\ERRORMESSAGE.CPP
W:\CCT\CCTPROJECT\CMNAPIUTIL\RELEASE STATIC\VC70.PDB
^W:\CCT\CCTPROJECT\CMNAPIUTIL\FUNCTIONAPRROXIMATOR.CPP
W:\CCT\CCTPROJECT\CMNAPIUTIL\RELEASE STATIC\VC70.PDB
^W:\CCT\CCTPROJECT\CMNAPIUTIL\INCBACKUP.CPP
W:\CCT\CCTPROJECT\CMNAPIUTIL\RELEASE STATIC\VC70.PDB
^W:\CCT\CCTPROJECT\CMNAPIUTIL\KWAITCURSOR.CPP
W:\CCT\CCTPROJECT\CMNAPIUTIL\RELEASE STATIC\VC70.PDB
^W:\CCT\CCTPROJECT\CMNAPIUTIL\LEXER.CPP
W:\CCT\CCTPROJECT\CMNAPIUTIL\RELEASE STATIC\VC70.PDB
^W:\CCT\CCTPROJECT\CMNAPIUTIL\LOG.CPP
W:\CCT\CCTPROJECT\CMNAPIUTIL\RELEASE STATIC\VC70.PDB
^W:\CCT\CCTPROJECT\CMNAPIUTIL\MAILSUPPORT.CPP
W:\CCT\CCTPROJECT\CMNAPIUTIL\RELEASE STATIC\VC70.PDB
^W:\CCT\CCTPROJECT\CMNAPIUTIL\MATHUTIL.CPP
W:\CCT\CCTPROJECT\CMNAPIUTIL\RELEASE STATIC\VC70.PDB
^W:\CCT\CCTPROJECT\CMNAPIUTIL\MATLABWRAPPER.CPP
W:\CCT\CCTPROJECT\CMNAPIUTIL\RELEASE STATIC\VC70.PDB
^W:\CCT\CCTPROJECT\CMNAPIUTIL\MATRIXAPPROXIMATOR.CPP
W:\CCT\CCTPROJECT\CMNAPIUTIL\RELEASE STATIC\VC70.PDB
^W:\CCT\CCTPROJECT\CMNAPIUTIL\OUTLOG.CPP
W:\CCT\CCTPROJECT\CMNAPIUTIL\RELEASE STATIC\VC70.PDB
^W:\CCT\CCTPROJECT\CMNAPIUTIL\RESIZEHELPER.CPP
W:\CCT\CCTPROJECT\CMNAPIUTIL\RELEASE STATIC\VC70.PDB
^W:\CCT\CCTPROJECT\CMNAPIUTIL\STACKRESIZE.CPP
W:\CCT\CCTPROJECT\CMNAPIUTIL\RELEASE STATIC\VC70.PDB
^W:\CCT\CCTPROJECT\CMNAPIUTIL\TRAYICON.CPP
W:\CCT\CCTPROJECT\CMNAPIUTIL\RELEASE STATIC\VC70.PDB
^W:\CCT\CCTPROJECT\CMNAPIUTIL\UTILBROWSE.CPP
W:\CCT\CCTPROJECT\CMNAPIUTIL\RELEASE STATIC\VC70.PDB
^W:\CCT\CCTPROJECT\CMNAPIUTIL\UTILBROWSEEX.CPP
W:\CCT\CCTPROJECT\CMNAPIUTIL\RELEASE STATIC\VC70.PDB
^W:\CCT\CCTPROJECT\CMNAPIUTIL\UTILCREATEWND.CPP
W:\CCT\CCTPROJECT\CMNAPIUTIL\RELEASE STATIC\VC70.PDB
^W:\CCT\CCTPROJECT\CMNAPIUTIL\UTILDISK.CPP
W:\CCT\CCTPROJECT\CMNAPIUTIL\RELEASE STATIC\VC70.PDB
^W:\CCT\CCTPROJECT\CMNAPIUTIL\UTILFILE.CPP
W:\CCT\CCTPROJECT\CMNAPIUTIL\RELEASE STATIC\VC70.PDB
^W:\CCT\CCTPROJECT\CMNAPIUTIL\UTILIMAGELIST.CPP
W:\CCT\CCTPROJECT\CMNAPIUTIL\RELEASE STATIC\VC70.PDB
^W:\CCT\CCTPROJECT\CMNAPIUTIL\UTILINI.CPP
W:\CCT\CCTPROJECT\CMNAPIUTIL\RELEASE STATIC\VC70.PDB
^W:\CCT\CCTPROJECT\CMNAPIUTIL\UTILINIWRITER.CPP
W:\CCT\CCTPROJECT\CMNAPIUTIL\RELEASE STATIC\VC70.PDB
^W:\CCT\CCTPROJECT\CMNAPIUTIL\UTILPATH.CPP
W:\CCT\CCTPROJECT\CMNAPIUTIL\RELEASE STATIC\VC70.PDB
^W:\CCT\CCTPROJECT\CMNAPIUTIL\UTILPROCESS.CPP
W:\CCT\CCTPROJECT\CMNAPIUTIL\RELEASE STATIC\VC70.PDB
^W:\CCT\CCTPROJECT\CMNAPIUTIL\UTILSCROLLBAR.CPP
W:\CCT\CCTPROJECT\CMNAPIUTIL\RELEASE STATIC\VC70.PDB
^W:\CCT\CCTPROJECT\CMNAPIUTIL\UTILSEARCHFILE.CPP
W:\CCT\CCTPROJECT\CMNAPIUTIL\RELEASE STATIC\VC70.PDB
^W:\CCT\CCTPROJECT\CMNAPIUTIL\UTILSLIDERCTRL.CPP
W:\CCT\CCTPROJECT\CMNAPIUTIL\RELEASE STATIC\VC70.PDB
^W:\CCT\CCTPROJECT\CMNAPIUTIL\UTILSTR.CPP
W:\CCT\CCTPROJECT\CMNAPIUTIL\RELEASE STATIC\VC70.PDB
^W:\CCT\CCTPROJECT\CMNAPIUTIL\UTILTABCTRL.CPP
W:\CCT\CCTPROJECT\CMNAPIUTIL\RELEASE STATIC\VC70.PDB
^W:\CCT\CCTPROJECT\CMNAPIUTIL\UTILTEXT.CPP
W:\CCT\CCTPROJECT\CMNAPIUTIL\RELEASE STATIC\VC70.PDB
^W:\CCT\CCTPROJECT\CMNAPIUTIL\UTILWND.CPP
W:\CCT\CCTPROJECT\CMNAPIUTIL\RELEASE STATIC\VC70.PDB
^W:\CCT\CCTPROJECT\CMNAPIUTIL\WINCONTROLUTILS.CPP
W:\CCT\CCTPROJECT\CMNAPIUTIL\RELEASE STATIC\VC70.PDB
^W:\CCT\CCTPROJECT\CMNAPIUTIL\WNDSTORAGE.CPP
W:\CCT\CCTPROJECT\CMNAPIUTIL\RELEASE STATIC\VC70.PDB
^W:\CCT\CCTPROJECT\CMNAPIUTIL\EXESTARTER.CPP
W:\CCT\CCTPROJECT\CMNAPIUTIL\RELEASE STATIC\VC70.PDB
W:\CCT\CCTPROJECT\CMNAPIUTIL\RELEASE STATIC\EXESTARTER.OBJ
