^W:\CCT\CCTPROJECT\KCUTIL\STDAFX.CPP
W:\CCT\CCTPROJECT\KCUTIL\RELEASE\KCUTIL.PCH
W:\CCT\CCTPROJECT\KCUTIL\RELEASE\VC142.PDB
W:\CCT\CCTPROJECT\KCUTIL\RELEASE\STDAFX.OBJ
^W:\CCT\CCTPROJECT\KCUTIL\AXISCALC.CPP|W:\CCT\CCTPROJECT\KCUTIL\AXISDRAWER.CPP|W:\CCT\CCTPROJECT\KCUTIL\CCELL.CPP|W:\CCT\CCTPROJECT\KCUTIL\CHECKVERSION.CPP|W:\CCT\CCTPROJECT\KCUTIL\COMBOBOXTAG.CPP|W:\CCT\CCTPROJECT\KCUTIL\DATAFIELD.CPP|W:\CCT\CCTPROJECT\KCUTIL\DATAFIELDS.CPP|W:\CCT\CCTPROJECT\KCUTIL\DATECLASS.CPP|W:\CCT\CCTPROJECT\KCUTIL\DB.CPP|W:\CCT\CCTPROJECT\KCUTIL\DIGITALFILTER.CPP|W:\CCT\CCTPROJECT\KCUTIL\GMSL.CPP|W:\CCT\CCTPROJECT\KCUTIL\GRAPHLINE.CPP|W:\CCT\CCTPROJECT\KCUTIL\GRAPHUTIL.CPP|W:\CCT\CCTPROJECT\KCUTIL\GSCALER.CPP|W:\CCT\CCTPROJECT\KCUTIL\KCUTIL.CPP|W:\CCT\CCTPROJECT\KCUTIL\KGR.CPP|W:\CCT\CCTPROJECT\KCUTIL\LISTVIEWEX.CPP|W:\CCT\CCTPROJECT\KCUTIL\MENULOGIC\MENUBITMAP.CPP|W:\CCT\CCTPROJECT\KCUTIL\MENULOGIC\MENUCHECK.CPP|W:\CCT\CCTPROJECT\KCUTIL\MENULOGIC\MENUCONTAINERLOGIC.CPP|W:\CCT\CCTPROJECT\KCUTIL\MENULOGIC\MENUOBJECT.CPP|W:\CCT\CCTPROJECT\KCUTIL\MENULOGIC\MENURADIO.CPP|W:\CCT\CCTPROJECT\KCUTIL\MENULOGIC\MENUSEPARATOR.CPP|W:\CCT\CCTPROJECT\KCUTIL\MENULOGIC\MENUTEXTBUTTON.CPP|W:\CCT\CCTPROJECT\KCUTIL\PLOTDRAWER.CPP|W:\CCT\CCTPROJECT\KCUTIL\POWERMANAGEMENT.CPP|W:\CCT\CCTPROJECT\KCUTIL\REPORTDOCUMENT.CPP|W:\CCT\CCTPROJECT\KCUTIL\REPORTDRAWERBASE.CPP|W:\CCT\CCTPROJECT\KCUTIL\REPORTPAGE.CPP|W:\CCT\CCTPROJECT\KCUTIL\REPORTTEXT.CPP|W:\CCT\CCTPROJECT\KCUTIL\RMSGBOX.CPP|W:\CCT\CCTPROJECT\KCUTIL\ROUNDEDFORM.CPP|W:\CCT\CCTPROJECT\KCUTIL\SCROLLBAREX.CPP|W:\CCT\CCTPROJECT\KCUTIL\SGFILTER.CPP|W:\CCT\CCTPROJECT\KCUTIL\TRAFFICGRAPH.CPP|W:\CCT\CCTPROJECT\KCUTIL\UTIL.CPP|W:\CCT\CCTPROJECT\KCUTIL\UTILBRIGHTNESS.CPP
W:\CCT\CCTPROJECT\KCUTIL\RELEASE\VC142.PDB
W:\CCT\CCTPROJECT\KCUTIL\RELEASE\MENUBITMAP.OBJ
W:\CCT\CCTPROJECT\KCUTIL\RELEASE\LISTVIEWEX.OBJ
W:\CCT\CCTPROJECT\KCUTIL\RELEASE\KGR.OBJ
W:\CCT\CCTPROJECT\KCUTIL\RELEASE\KCUTIL.OBJ
W:\CCT\CCTPROJECT\KCUTIL\RELEASE\GSCALER.OBJ
W:\CCT\CCTPROJECT\KCUTIL\RELEASE\GRAPHUTIL.OBJ
W:\CCT\CCTPROJECT\KCUTIL\RELEASE\GRAPHLINE.OBJ
W:\CCT\CCTPROJECT\KCUTIL\RELEASE\GMSL.OBJ
W:\CCT\CCTPROJECT\KCUTIL\RELEASE\DIGITALFILTER.OBJ
W:\CCT\CCTPROJECT\KCUTIL\RELEASE\DB.OBJ
W:\CCT\CCTPROJECT\KCUTIL\RELEASE\DATECLASS.OBJ
W:\CCT\CCTPROJECT\KCUTIL\RELEASE\DATAFIELDS.OBJ
W:\CCT\CCTPROJECT\KCUTIL\RELEASE\DATAFIELD.OBJ
W:\CCT\CCTPROJECT\KCUTIL\RELEASE\POWERMANAGEMENT.OBJ
W:\CCT\CCTPROJECT\KCUTIL\RELEASE\REPORTDRAWERBASE.OBJ
W:\CCT\CCTPROJECT\KCUTIL\RELEASE\COMBOBOXTAG.OBJ
W:\CCT\CCTPROJECT\KCUTIL\RELEASE\CHECKVERSION.OBJ
W:\CCT\CCTPROJECT\KCUTIL\RELEASE\CCELL.OBJ
W:\CCT\CCTPROJECT\KCUTIL\RELEASE\AXISDRAWER.OBJ
W:\CCT\CCTPROJECT\KCUTIL\RELEASE\AXISCALC.OBJ
W:\CCT\CCTPROJECT\KCUTIL\RELEASE\UTILBRIGHTNESS.OBJ
W:\CCT\CCTPROJECT\KCUTIL\RELEASE\UTIL.OBJ
W:\CCT\CCTPROJECT\KCUTIL\RELEASE\TRAFFICGRAPH.OBJ
W:\CCT\CCTPROJECT\KCUTIL\RELEASE\SGFILTER.OBJ
W:\CCT\CCTPROJECT\KCUTIL\RELEASE\SCROLLBAREX.OBJ
W:\CCT\CCTPROJECT\KCUTIL\RELEASE\ROUNDEDFORM.OBJ
W:\CCT\CCTPROJECT\KCUTIL\RELEASE\RMSGBOX.OBJ
W:\CCT\CCTPROJECT\KCUTIL\RELEASE\REPORTTEXT.OBJ
W:\CCT\CCTPROJECT\KCUTIL\RELEASE\REPORTPAGE.OBJ
W:\CCT\CCTPROJECT\KCUTIL\RELEASE\REPORTDOCUMENT.OBJ
W:\CCT\CCTPROJECT\KCUTIL\RELEASE\PLOTDRAWER.OBJ
W:\CCT\CCTPROJECT\KCUTIL\RELEASE\MENUTEXTBUTTON.OBJ
W:\CCT\CCTPROJECT\KCUTIL\RELEASE\MENUSEPARATOR.OBJ
W:\CCT\CCTPROJECT\KCUTIL\RELEASE\MENURADIO.OBJ
W:\CCT\CCTPROJECT\KCUTIL\RELEASE\MENUOBJECT.OBJ
W:\CCT\CCTPROJECT\KCUTIL\RELEASE\MENUCONTAINERLOGIC.OBJ
W:\CCT\CCTPROJECT\KCUTIL\RELEASE\MENUCHECK.OBJ
^W:\CCT\CCTPROJECT\KCUTIL\AXISCALC.CPP
W:\CCT\CCTPROJECT\KCUTIL\RELEASE\VC142.PDB
^W:\CCT\CCTPROJECT\KCUTIL\AXISDRAWER.CPP
W:\CCT\CCTPROJECT\KCUTIL\RELEASE\VC142.PDB
^W:\CCT\CCTPROJECT\KCUTIL\CCELL.CPP
W:\CCT\CCTPROJECT\KCUTIL\RELEASE\VC142.PDB
^W:\CCT\CCTPROJECT\KCUTIL\CHECKVERSION.CPP
W:\CCT\CCTPROJECT\KCUTIL\RELEASE\VC142.PDB
^W:\CCT\CCTPROJECT\KCUTIL\COMBOBOXTAG.CPP
W:\CCT\CCTPROJECT\KCUTIL\RELEASE\VC142.PDB
^W:\CCT\CCTPROJECT\KCUTIL\REPORTDRAWERBASE.CPP
W:\CCT\CCTPROJECT\KCUTIL\RELEASE\VC142.PDB
^W:\CCT\CCTPROJECT\KCUTIL\POWERMANAGEMENT.CPP
W:\CCT\CCTPROJECT\KCUTIL\RELEASE\VC142.PDB
^W:\CCT\CCTPROJECT\KCUTIL\DATAFIELD.CPP
W:\CCT\CCTPROJECT\KCUTIL\RELEASE\VC142.PDB
^W:\CCT\CCTPROJECT\KCUTIL\DATAFIELDS.CPP
W:\CCT\CCTPROJECT\KCUTIL\RELEASE\VC142.PDB
^W:\CCT\CCTPROJECT\KCUTIL\DB.CPP
W:\CCT\CCTPROJECT\KCUTIL\RELEASE\VC142.PDB
^W:\CCT\CCTPROJECT\KCUTIL\DIGITALFILTER.CPP
W:\CCT\CCTPROJECT\KCUTIL\RELEASE\VC142.PDB
^W:\CCT\CCTPROJECT\KCUTIL\GMSL.CPP
W:\CCT\CCTPROJECT\KCUTIL\RELEASE\VC142.PDB
^W:\CCT\CCTPROJECT\KCUTIL\GRAPHLINE.CPP
W:\CCT\CCTPROJECT\KCUTIL\RELEASE\VC142.PDB
^W:\CCT\CCTPROJECT\KCUTIL\GRAPHUTIL.CPP
W:\CCT\CCTPROJECT\KCUTIL\RELEASE\VC142.PDB
^W:\CCT\CCTPROJECT\KCUTIL\GSCALER.CPP
W:\CCT\CCTPROJECT\KCUTIL\RELEASE\VC142.PDB
^W:\CCT\CCTPROJECT\KCUTIL\KCUTIL.CPP
W:\CCT\CCTPROJECT\KCUTIL\RELEASE\VC142.PDB
^W:\CCT\CCTPROJECT\KCUTIL\KGR.CPP
W:\CCT\CCTPROJECT\KCUTIL\RELEASE\VC142.PDB
^W:\CCT\CCTPROJECT\KCUTIL\LISTVIEWEX.CPP
W:\CCT\CCTPROJECT\KCUTIL\RELEASE\VC142.PDB
^W:\CCT\CCTPROJECT\KCUTIL\MENULOGIC\MENUBITMAP.CPP
W:\CCT\CCTPROJECT\KCUTIL\RELEASE\VC142.PDB
^W:\CCT\CCTPROJECT\KCUTIL\MENULOGIC\MENUCHECK.CPP
W:\CCT\CCTPROJECT\KCUTIL\RELEASE\VC142.PDB
^W:\CCT\CCTPROJECT\KCUTIL\MENULOGIC\MENUCONTAINERLOGIC.CPP
W:\CCT\CCTPROJECT\KCUTIL\RELEASE\VC142.PDB
^W:\CCT\CCTPROJECT\KCUTIL\MENULOGIC\MENUOBJECT.CPP
W:\CCT\CCTPROJECT\KCUTIL\RELEASE\VC142.PDB
^W:\CCT\CCTPROJECT\KCUTIL\MENULOGIC\MENURADIO.CPP
W:\CCT\CCTPROJECT\KCUTIL\RELEASE\VC142.PDB
^W:\CCT\CCTPROJECT\KCUTIL\MENULOGIC\MENUSEPARATOR.CPP
W:\CCT\CCTPROJECT\KCUTIL\RELEASE\VC142.PDB
^W:\CCT\CCTPROJECT\KCUTIL\MENULOGIC\MENUTEXTBUTTON.CPP
W:\CCT\CCTPROJECT\KCUTIL\RELEASE\VC142.PDB
^W:\CCT\CCTPROJECT\KCUTIL\PLOTDRAWER.CPP
W:\CCT\CCTPROJECT\KCUTIL\RELEASE\VC142.PDB
^W:\CCT\CCTPROJECT\KCUTIL\REPORTDOCUMENT.CPP
W:\CCT\CCTPROJECT\KCUTIL\RELEASE\VC142.PDB
^W:\CCT\CCTPROJECT\KCUTIL\REPORTPAGE.CPP
W:\CCT\CCTPROJECT\KCUTIL\RELEASE\VC142.PDB
^W:\CCT\CCTPROJECT\KCUTIL\REPORTTEXT.CPP
W:\CCT\CCTPROJECT\KCUTIL\RELEASE\VC142.PDB
^W:\CCT\CCTPROJECT\KCUTIL\RMSGBOX.CPP
W:\CCT\CCTPROJECT\KCUTIL\RELEASE\VC142.PDB
^W:\CCT\CCTPROJECT\KCUTIL\ROUNDEDFORM.CPP
W:\CCT\CCTPROJECT\KCUTIL\RELEASE\VC142.PDB
^W:\CCT\CCTPROJECT\KCUTIL\SCROLLBAREX.CPP
W:\CCT\CCTPROJECT\KCUTIL\RELEASE\VC142.PDB
^W:\CCT\CCTPROJECT\KCUTIL\SGFILTER.CPP
W:\CCT\CCTPROJECT\KCUTIL\RELEASE\VC142.PDB
^W:\CCT\CCTPROJECT\KCUTIL\TRAFFICGRAPH.CPP
W:\CCT\CCTPROJECT\KCUTIL\RELEASE\VC142.PDB
^W:\CCT\CCTPROJECT\KCUTIL\UTIL.CPP
W:\CCT\CCTPROJECT\KCUTIL\RELEASE\VC142.PDB
^W:\CCT\CCTPROJECT\KCUTIL\UTILBRIGHTNESS.CPP
W:\CCT\CCTPROJECT\KCUTIL\RELEASE\VC142.PDB
^W:\CCT\CCTPROJECT\KCUTIL\DLLMAIN.CPP
W:\CCT\CCTPROJECT\KCUTIL\RELEASE\VC142.PDB
W:\CCT\CCTPROJECT\KCUTIL\RELEASE\DLLMAIN.OBJ
^W:\CCT\CCTPROJECT\KCUTIL\DATECLASS.CPP
W:\CCT\CCTPROJECT\KCUTIL\RELEASE\VC142.PDB
W:\CCT\CCTPROJECT\KCUTIL\RELEASE\DATECLASS.OBJ
