-0.007544853207841126
-0.008704789516333173
-0.011948899120997482
-0.01418702881428948
-0.01434366189664805
-0.011337755332461997
-0.004303499602356293
0.007224389229494691
0.02316047313563794
0.042739013433361873
0.06457957689784308
0.08678251858356824
0.10718612848462648
0.12364145922340622
0.13432946119693823
0.13803567610932496
0.13432946119693823
0.12364145922340622
0.10718612848462648
0.08678251858356824
0.06457957689784308
0.042739013433361873
0.02316047313563794
0.007224389229494691
-0.0043034996023562895
-0.011337755332461997
-0.01434366189664805
-0.01418702881428948
-0.011948899120997482
-0.008704789516333177
-0.007544853207841126
