-0.0033717868038017004
-0.0015846949396193602
-0.0017836628390740159
-0.0018482346457309267
-0.001724929581333324
-0.001357688732546131
-0.0006915019629896327
0.0003249904569293413
0.0017362745452369328
0.0035760808053798077
0.005864529042043882
0.008605445702308192
0.011788013283895421
0.015372871208088135
0.019319493333555995
0.02354358089039695
0.02796424375901747
0.03247989247067689
0.03697266057761254
0.041320613656475706
0.045403324891805937
0.04910201663502506
0.05230266349221806
0.05490404746529718
0.0568241597785076
0.05800255584245192
0.058397985645466444
0.05800255584245192
0.0568241597785076
0.05490404746529718
0.05230266349221806
0.04910201663502506
0.045403324891805937
0.041320613656475706
0.03697266057761254
0.03247989247067689
0.02796424375901747
0.02354358089039695
0.019319493333555995
0.015372871208088135
0.011788013283895421
0.008605445702308192
0.005864529042043882
0.0035760808053798077
0.0017362745452369328
0.0003249904569293413
-0.0006915019629896327
-0.001357688732546131
-0.0017249295813333242
-0.001848234645730931
-0.0017836628390740159
-0.0015846949396193602
-0.0033717868038017004
