-0.0037813337790036125
-0.0011527533183003221
-0.0003554397996376286
0.0014133112593309862
0.004376874142907162
0.008697400611448795
0.014456716024899514
0.021598769908510222
0.029954885255337706
0.03920062315994009
0.04889207651313288
0.05850217413558547
0.06744614435858627
0.07514420082001126
0.08106956421978487
0.08480553239544847
0.08608316066889402
0.08480553239544847
0.08106956421978485
0.07514420082001126
0.06744614435858627
0.05850217413558547
0.04889207651313288
0.03920062315994009
0.029954885255337706
0.021598769908510222
0.014456716024899516
0.008697400611448795
0.004376874142907162
0.0014133112593309862
-0.00035543979963763533
-0.0011527533183003221
-0.0037813337790036125
