-0.009190915716592486
-0.010261608475199748
-0.012450731704885015
-0.0111860065966585
-0.00455793926500008
0.008747208449721577
0.028998762168020695
0.05505709055151271
0.08439723105030626
0.11340768378756284
0.13802339014619908
0.15454175508636606
0.160361261216439
0.15454175508636606
0.13802339014619908
0.11340768378756284
0.08439723105030626
0.05505709055151271
0.028998762168020695
0.008747208449721572
-0.00455793926500008
-0.0111860065966585
-0.012450731704885023
-0.010261608475199746
-0.009190915716592486
