-0.002744620132798889
0.002832224611548783
0.0075114275134767075
0.015489479642186239
0.026750670581053453
0.04089703516522618
0.0570219024757929
0.0737335019544345
0.08934281123552869
0.10208466379733444
0.11042929215310776
0.11333410405814423
0.11042929215310776
0.10208466379733444
0.08934281123552869
0.0737335019544345
0.0570219024757929
0.04089703516522618
0.026750670581053453
0.015489479642186239
0.0075114275134767075
0.002832224611548783
-0.002744620132798889
