-0.007775715121256264
-0.007938974136595611
-0.009534265788246121
-0.008779578259641289
-0.0043818844217508686
0.004666131585205174
0.018804473122893708
0.0376414470600185
0.05992101812383003
0.08357444021744637
0.1060185570270123
0.12454015906119098
0.13674393462068657
0.14100385434561774
0.13674393462068657
0.12454015906119098
0.10601855702701227
0.08357444021744637
0.05992101812383003
0.0376414470600185
0.018804473122893708
0.004666131585205174
-0.0043818844217508686
-0.008779578259641289
-0.009534265788246121
-0.00793897413659561
-0.007775715121256264
