-0.008661340746147798
-0.009498161193099186
-0.010434309689266208
-0.006650839707263796
0.003976748234213612
0.022519378397828752
0.04843024701684307
0.07925334522024353
0.11094499708970376
0.13857587729282436
0.15742948493448922
0.16412599060561545
0.15742948493448922
0.13857587729282436
0.11094499708970376
0.07925334522024353
0.04843024701684307
0.022519378397828752
0.003976748234213612
-0.006650839707263796
-0.010434309689266208
-0.009498161193099186
-0.008661340746147798
