^W:\CCT\CCTPROJECT\DXKDLL\STDAFX.CPP
W:\CCT\CCTPROJECT\DXKDLL\RELEASE\DXKDLL.PCH
W:\CCT\CCTPROJECT\DXKDLL\RELEASE\VC142.PDB
W:\CCT\CCTPROJECT\DXKDLL\RELEASE\STDAFX.OBJ
^W:\CCT\CCTPROJECT\DXKDLL\DLLMAIN.CPP
W:\CCT\CCTPROJECT\DXKDLL\RELEASE\VC142.PDB
W:\CCT\CCTPROJECT\DXKDLL\RELEASE\DLLMAIN.OBJ
^W:\CCT\CCTPROJECT\DXKDLL\DXKDLL.CPP|W:\CCT\CCTPROJECT\DXKDLL\JOYSTICKADDON.CPP|W:\CCT\CCTPROJECT\DXKDLL\JOYSTICKEXP.CPP
W:\CCT\CCTPROJECT\DXKDLL\RELEASE\VC142.PDB
W:\CCT\CCTPROJECT\DXKDLL\RELEASE\JOYSTICKEXP.OBJ
W:\CCT\CCTPROJECT\DXKDLL\RELEASE\JOYSTICKADDON.OBJ
W:\CCT\CCTPROJECT\DXKDLL\RELEASE\DXKDLL.OBJ
^W:\CCT\CCTPROJECT\DXKDLL\DXKDLL.CPP
W:\CCT\CCTPROJECT\DXKDLL\RELEASE\VC142.PDB
^W:\CCT\CCTPROJECT\DXKDLL\JOYSTICKADDON.CPP
W:\CCT\CCTPROJECT\DXKDLL\RELEASE\VC142.PDB
^W:\CCT\CCTPROJECT\DXKDLL\JOYSTICKEXP.CPP
W:\CCT\CCTPROJECT\DXKDLL\RELEASE\VC142.PDB
