^W:\CCT\CCTPROJECT\DXKDLL\RELEASE\DLLMAIN.OBJ|W:\CCT\CCTPROJECT\DXKDLL\RELEASE\DXKDLL.OBJ|W:\CCT\CCTPROJECT\DXKDLL\RELEASE\JOYSTICKADDON.OBJ|W:\CCT\CCTPROJECT\DXKDLL\RELEASE\JOYSTICKEXP.OBJ|W:\CCT\CCTPROJECT\DXKDLL\RELEASE\STDAFX.OBJ
W:\CCT\CCTPROJECT\RELEASE\DXKDLL.DLL
W:\CCT\CCTPROJECT\RELEASE\DXKDLL.PDB
W:\CCT\CCTPROJECT\DXKDLL\RELEASE\DXKDLL.IPDB
W:\CCT\CCTPROJECT\DXKDLL\RELEASE\DXKDLL.IOBJ
