^W:\CCT\CCTPROJECT\KONANLIB\KONANLIB\RELEASE\AES.OBJ|W:\CCT\CCTPROJECT\KONANLIB\KONANLIB\RELEASE\COM.OBJ|W:\CCT\CCTPROJECT\KONANLIB\KONANLIB\RELEASE\DLLMAIN.OBJ|W:\CCT\CCTPROJECT\KONANLIB\KONANLIB\RELEASE\ENCDEC.OBJ|W:\CCT\CCTPROJECT\KONANLIB\KONANLIB\RELEASE\HARDDRIVESERIALNUMER.OBJ|W:\CCT\CCTPROJECT\KONANLIB\KONANLIB\RELEASE\HTTPHELPER.OBJ|W:\CCT\CCTPROJECT\KONANLIB\KONANLIB\RELEASE\KLIC.OBJ|W:\CCT\CCTPROJECT\KONANLIB\KONANLIB\RELEASE\KONANLIB.OBJ|W:\CCT\CCTPROJECT\KONANLIB\KONANLIB\RELEASE\STDAFX.OBJ
C:\PROGRAM FILES (X86)\WINDOWS KITS\10\LIB\10.0.19041.0\UM\X86\CRYPT32.LIB
C:\PROGRAM FILES (X86)\WINDOWS KITS\10\LIB\10.0.19041.0\UM\X86\BCRYPT.LIB
C:\MSVS2019\VC\TOOLS\MSVC\14.28.29910\LIB\X86\LIBVCRUNTIME.LIB
C:\PROGRAM FILES (X86)\WINDOWS KITS\10\LIB\10.0.19041.0\UM\X86\WINHTTP.LIB
C:\PROGRAM FILES (X86)\WINDOWS KITS\10\LIB\10.0.19041.0\UM\X86\KERNEL32.LIB
C:\PROGRAM FILES (X86)\WINDOWS KITS\10\LIB\10.0.19041.0\UM\X86\USER32.LIB
C:\PROGRAM FILES (X86)\WINDOWS KITS\10\LIB\10.0.19041.0\UM\X86\GDI32.LIB
C:\PROGRAM FILES (X86)\WINDOWS KITS\10\LIB\10.0.19041.0\UM\X86\WINSPOOL.LIB
C:\PROGRAM FILES (X86)\WINDOWS KITS\10\LIB\10.0.19041.0\UM\X86\COMDLG32.LIB
C:\PROGRAM FILES (X86)\WINDOWS KITS\10\LIB\10.0.19041.0\UM\X86\ADVAPI32.LIB
C:\PROGRAM FILES (X86)\WINDOWS KITS\10\LIB\10.0.19041.0\UM\X86\SHELL32.LIB
C:\PROGRAM FILES (X86)\WINDOWS KITS\10\LIB\10.0.19041.0\UM\X86\OLE32.LIB
C:\PROGRAM FILES (X86)\WINDOWS KITS\10\LIB\10.0.19041.0\UM\X86\OLEAUT32.LIB
C:\PROGRAM FILES (X86)\WINDOWS KITS\10\LIB\10.0.19041.0\UM\X86\UUID.LIB
C:\PROGRAM FILES (X86)\WINDOWS KITS\10\LIB\10.0.19041.0\UM\X86\ODBC32.LIB
C:\PROGRAM FILES (X86)\WINDOWS KITS\10\LIB\10.0.19041.0\UM\X86\ODBCCP32.LIB
W:\LIB\VCPKG-MASTER\INSTALLED\X86-WINDOWS-STATIC\LIB\BROTLICOMMON-STATIC.LIB
W:\LIB\VCPKG-MASTER\INSTALLED\X86-WINDOWS-STATIC\LIB\BROTLIDEC-STATIC.LIB
W:\LIB\VCPKG-MASTER\INSTALLED\X86-WINDOWS-STATIC\LIB\BROTLIENC-STATIC.LIB
W:\LIB\VCPKG-MASTER\INSTALLED\X86-WINDOWS-STATIC\LIB\CPPREST_2_10.LIB
W:\LIB\VCPKG-MASTER\INSTALLED\X86-WINDOWS-STATIC\LIB\JPEG.LIB
W:\LIB\VCPKG-MASTER\INSTALLED\X86-WINDOWS-STATIC\LIB\LIBCURL.LIB
W:\LIB\VCPKG-MASTER\INSTALLED\X86-WINDOWS-STATIC\LIB\LIBPNG16.LIB
W:\LIB\VCPKG-MASTER\INSTALLED\X86-WINDOWS-STATIC\LIB\LIBPROTOBUF-LITE.LIB
W:\LIB\VCPKG-MASTER\INSTALLED\X86-WINDOWS-STATIC\LIB\LIBPROTOBUF.LIB
W:\LIB\VCPKG-MASTER\INSTALLED\X86-WINDOWS-STATIC\LIB\LIBPROTOC.LIB
W:\LIB\VCPKG-MASTER\INSTALLED\X86-WINDOWS-STATIC\LIB\LIBWEBPMUX.LIB
W:\LIB\VCPKG-MASTER\INSTALLED\X86-WINDOWS-STATIC\LIB\LZMA.LIB
W:\LIB\VCPKG-MASTER\INSTALLED\X86-WINDOWS-STATIC\LIB\OPENCV_CALIB3D.LIB
W:\LIB\VCPKG-MASTER\INSTALLED\X86-WINDOWS-STATIC\LIB\OPENCV_CORE.LIB
W:\LIB\VCPKG-MASTER\INSTALLED\X86-WINDOWS-STATIC\LIB\OPENCV_DNN.LIB
W:\LIB\VCPKG-MASTER\INSTALLED\X86-WINDOWS-STATIC\LIB\OPENCV_FEATURES2D.LIB
W:\LIB\VCPKG-MASTER\INSTALLED\X86-WINDOWS-STATIC\LIB\OPENCV_FLANN.LIB
W:\LIB\VCPKG-MASTER\INSTALLED\X86-WINDOWS-STATIC\LIB\OPENCV_HIGHGUI.LIB
W:\LIB\VCPKG-MASTER\INSTALLED\X86-WINDOWS-STATIC\LIB\OPENCV_IMGCODECS.LIB
W:\LIB\VCPKG-MASTER\INSTALLED\X86-WINDOWS-STATIC\LIB\OPENCV_IMGPROC.LIB
W:\LIB\VCPKG-MASTER\INSTALLED\X86-WINDOWS-STATIC\LIB\OPENCV_ML.LIB
W:\LIB\VCPKG-MASTER\INSTALLED\X86-WINDOWS-STATIC\LIB\OPENCV_OBJDETECT.LIB
W:\LIB\VCPKG-MASTER\INSTALLED\X86-WINDOWS-STATIC\LIB\OPENCV_PHOTO.LIB
W:\LIB\VCPKG-MASTER\INSTALLED\X86-WINDOWS-STATIC\LIB\OPENCV_STITCHING.LIB
W:\LIB\VCPKG-MASTER\INSTALLED\X86-WINDOWS-STATIC\LIB\OPENCV_VIDEO.LIB
W:\LIB\VCPKG-MASTER\INSTALLED\X86-WINDOWS-STATIC\LIB\OPENCV_VIDEOIO.LIB
W:\LIB\VCPKG-MASTER\INSTALLED\X86-WINDOWS-STATIC\LIB\QUIRC.LIB
W:\LIB\VCPKG-MASTER\INSTALLED\X86-WINDOWS-STATIC\LIB\TIFF.LIB
W:\LIB\VCPKG-MASTER\INSTALLED\X86-WINDOWS-STATIC\LIB\TIFFXX.LIB
W:\LIB\VCPKG-MASTER\INSTALLED\X86-WINDOWS-STATIC\LIB\TURBOJPEG.LIB
W:\LIB\VCPKG-MASTER\INSTALLED\X86-WINDOWS-STATIC\LIB\WEBP.LIB
W:\LIB\VCPKG-MASTER\INSTALLED\X86-WINDOWS-STATIC\LIB\WEBPDECODER.LIB
W:\LIB\VCPKG-MASTER\INSTALLED\X86-WINDOWS-STATIC\LIB\WEBPDEMUX.LIB
W:\LIB\VCPKG-MASTER\INSTALLED\X86-WINDOWS-STATIC\LIB\ZLIB.LIB
W:\CCT\CCTPROJECT\KONANLIB\KONANLIB\RELEASE\AES.OBJ
W:\CCT\CCTPROJECT\KONANLIB\KONANLIB\RELEASE\COM.OBJ
W:\CCT\CCTPROJECT\KONANLIB\KONANLIB\RELEASE\DLLMAIN.OBJ
W:\CCT\CCTPROJECT\KONANLIB\KONANLIB\RELEASE\ENCDEC.OBJ
W:\CCT\CCTPROJECT\KONANLIB\KONANLIB\RELEASE\HARDDRIVESERIALNUMER.OBJ
W:\CCT\CCTPROJECT\KONANLIB\KONANLIB\RELEASE\HTTPHELPER.OBJ
W:\CCT\CCTPROJECT\KONANLIB\KONANLIB\RELEASE\KLIC.OBJ
W:\CCT\CCTPROJECT\KONANLIB\KONANLIB\RELEASE\KONANLIB.OBJ
W:\CCT\CCTPROJECT\KONANLIB\KONANLIB\RELEASE\STDAFX.OBJ
C:\WINDOWS\GLOBALIZATION\SORTING\SORTDEFAULT.NLS
C:\MSVS2019\VC\TOOLS\MSVC\14.28.29910\BIN\HOSTX86\X86\C2.DLL
C:\MSVS2019\VC\TOOLS\MSVC\14.28.29910\LIB\X86\LIBCMT.LIB
C:\MSVS2019\VC\TOOLS\MSVC\14.28.29910\LIB\X86\OLDNAMES.LIB
C:\MSVS2019\VC\TOOLS\MSVC\14.28.29910\LIB\X86\LIBCPMT.LIB
C:\MSVS2019\VC\TOOLS\MSVC\14.28.29910\LIB\X86\LIBCONCRT.LIB
C:\MSVS2019\VC\TOOLS\MSVC\14.28.29910\ATLMFC\LIB\X86\ATLS.LIB
C:\PROGRAM FILES (X86)\WINDOWS KITS\10\LIB\10.0.19041.0\UM\X86\SHLWAPI.LIB
C:\PROGRAM FILES (X86)\WINDOWS KITS\10\LIB\10.0.19041.0\UCRT\X86\LIBUCRT.LIB
C:\WINDOWS\SYSTEM32\TZRES.DLL
C:\MSVS2019\VC\TOOLS\MSVC\14.28.29910\BIN\HOSTX86\X86\1033\LINKUI.DLL
C:\MSVS2019\VC\TOOLS\MSVC\14.28.29910\BIN\HOSTX86\X86\CVTRES.EXE
