#Command: c:\msvs2019\VC\Tools\MSVC\14.28.29333\bin\HostX86\x64\link.exe /ERRORREPORT:PROMPT @C:\Users\cool\AppData\Local\Temp\tmp6ca69f08055043628b0b55b48a54d804.rsp
^N:\!EK\KONANLIB\KONANLIB\X64\RELEASE\AES.OBJ|N:\!EK\KONANLIB\KONANLIB\X64\RELEASE\COM.OBJ|N:\!EK\KONANLIB\KONANLIB\X64\RELEASE\DLLMAIN.OBJ|N:\!EK\KONANLIB\KONANLIB\X64\RELEASE\ENCDEC.OBJ|N:\!EK\KONANLIB\KONANLIB\X64\RELEASE\HARDDRIVESERIALNUMER.OBJ|N:\!EK\KONANLIB\KONANLIB\X64\RELEASE\HTTPHELPER.OBJ|N:\!EK\KONANLIB\KONANLIB\X64\RELEASE\KLIC.OBJ|N:\!EK\KONANLIB\KONANLIB\X64\RELEASE\KONANLIB.OBJ|N:\!EK\KONANLIB\KONANLIB\X64\RELEASE\STDAFX.OBJ
C:\USERS\COOL\APPDATA\LOCAL\TEMP\LNK{69AC7B6E-145B-46ED-928C-8667195D0BA8}.TMP
