^N:\!EK\KONANLIB\KONANLIB\X64\RELEASE\AES.OBJ|N:\!EK\KONANLIB\KONANLIB\X64\RELEASE\COM.OBJ|N:\!EK\KONANLIB\KONANLIB\X64\RELEASE\DLLMAIN.OBJ|N:\!EK\KONANLIB\KONANLIB\X64\RELEASE\ENCDEC.OBJ|N:\!EK\KONANLIB\KONANLIB\X64\RELEASE\HARDDRIVESERIALNUMER.OBJ|N:\!EK\KONANLIB\KONANLIB\X64\RELEASE\HTTPHELPER.OBJ|N:\!EK\KONANLIB\KONANLIB\X64\RELEASE\KLIC.OBJ|N:\!EK\KONANLIB\KONANLIB\X64\RELEASE\KONANLIB.OBJ|N:\!EK\KONANLIB\KONANLIB\X64\RELEASE\STDAFX.OBJ
C:\WINDOWS KITS\10\LIB\10.0.18362.0\UM\X64\BCRYPT.LIB
C:\WINDOWS KITS\10\LIB\10.0.18362.0\UM\X64\CRYPT32.LIB
C:\WINDOWS KITS\10\LIB\10.0.18362.0\UM\X64\WINHTTP.LIB
C:\WINDOWS KITS\10\LIB\10.0.18362.0\UM\X64\KERNEL32.LIB
C:\WINDOWS KITS\10\LIB\10.0.18362.0\UM\X64\USER32.LIB
C:\WINDOWS KITS\10\LIB\10.0.18362.0\UM\X64\GDI32.LIB
C:\WINDOWS KITS\10\LIB\10.0.18362.0\UM\X64\WINSPOOL.LIB
C:\WINDOWS KITS\10\LIB\10.0.18362.0\UM\X64\COMDLG32.LIB
C:\WINDOWS KITS\10\LIB\10.0.18362.0\UM\X64\ADVAPI32.LIB
C:\WINDOWS KITS\10\LIB\10.0.18362.0\UM\X64\SHELL32.LIB
C:\WINDOWS KITS\10\LIB\10.0.18362.0\UM\X64\OLE32.LIB
C:\WINDOWS KITS\10\LIB\10.0.18362.0\UM\X64\OLEAUT32.LIB
C:\WINDOWS KITS\10\LIB\10.0.18362.0\UM\X64\UUID.LIB
C:\WINDOWS KITS\10\LIB\10.0.18362.0\UM\X64\ODBC32.LIB
C:\WINDOWS KITS\10\LIB\10.0.18362.0\UM\X64\ODBCCP32.LIB
W:\LIB\VCPKG-MASTER\INSTALLED\X64-WINDOWS-STATIC\LIB\AVCODEC.LIB
W:\LIB\VCPKG-MASTER\INSTALLED\X64-WINDOWS-STATIC\LIB\AVDEVICE.LIB
W:\LIB\VCPKG-MASTER\INSTALLED\X64-WINDOWS-STATIC\LIB\AVFILTER.LIB
W:\LIB\VCPKG-MASTER\INSTALLED\X64-WINDOWS-STATIC\LIB\AVFORMAT.LIB
W:\LIB\VCPKG-MASTER\INSTALLED\X64-WINDOWS-STATIC\LIB\AVRESAMPLE.LIB
W:\LIB\VCPKG-MASTER\INSTALLED\X64-WINDOWS-STATIC\LIB\AVUTIL.LIB
W:\LIB\VCPKG-MASTER\INSTALLED\X64-WINDOWS-STATIC\LIB\BOOST_ATOMIC-VC140-MT.LIB
W:\LIB\VCPKG-MASTER\INSTALLED\X64-WINDOWS-STATIC\LIB\BOOST_CHRONO-VC140-MT.LIB
W:\LIB\VCPKG-MASTER\INSTALLED\X64-WINDOWS-STATIC\LIB\BOOST_CONTAINER-VC140-MT.LIB
W:\LIB\VCPKG-MASTER\INSTALLED\X64-WINDOWS-STATIC\LIB\BOOST_CONTEXT-VC140-MT.LIB
W:\LIB\VCPKG-MASTER\INSTALLED\X64-WINDOWS-STATIC\LIB\BOOST_CONTRACT-VC140-MT.LIB
W:\LIB\VCPKG-MASTER\INSTALLED\X64-WINDOWS-STATIC\LIB\BOOST_COROUTINE-VC140-MT.LIB
W:\LIB\VCPKG-MASTER\INSTALLED\X64-WINDOWS-STATIC\LIB\BOOST_DATE_TIME-VC140-MT.LIB
W:\LIB\VCPKG-MASTER\INSTALLED\X64-WINDOWS-STATIC\LIB\BOOST_EXCEPTION-VC140-MT.LIB
W:\LIB\VCPKG-MASTER\INSTALLED\X64-WINDOWS-STATIC\LIB\BOOST_FIBER-VC140-MT.LIB
W:\LIB\VCPKG-MASTER\INSTALLED\X64-WINDOWS-STATIC\LIB\BOOST_FILESYSTEM-VC140-MT.LIB
W:\LIB\VCPKG-MASTER\INSTALLED\X64-WINDOWS-STATIC\LIB\BOOST_GRAPH-VC140-MT.LIB
W:\LIB\VCPKG-MASTER\INSTALLED\X64-WINDOWS-STATIC\LIB\BOOST_IOSTREAMS-VC140-MT.LIB
W:\LIB\VCPKG-MASTER\INSTALLED\X64-WINDOWS-STATIC\LIB\BOOST_LOCALE-VC140-MT.LIB
W:\LIB\VCPKG-MASTER\INSTALLED\X64-WINDOWS-STATIC\LIB\BOOST_LOG-VC140-MT.LIB
W:\LIB\VCPKG-MASTER\INSTALLED\X64-WINDOWS-STATIC\LIB\BOOST_LOG_SETUP-VC140-MT.LIB
W:\LIB\VCPKG-MASTER\INSTALLED\X64-WINDOWS-STATIC\LIB\BOOST_MATH_C99-VC140-MT.LIB
W:\LIB\VCPKG-MASTER\INSTALLED\X64-WINDOWS-STATIC\LIB\BOOST_MATH_C99F-VC140-MT.LIB
W:\LIB\VCPKG-MASTER\INSTALLED\X64-WINDOWS-STATIC\LIB\BOOST_MATH_C99L-VC140-MT.LIB
W:\LIB\VCPKG-MASTER\INSTALLED\X64-WINDOWS-STATIC\LIB\BOOST_MATH_TR1-VC140-MT.LIB
W:\LIB\VCPKG-MASTER\INSTALLED\X64-WINDOWS-STATIC\LIB\BOOST_MATH_TR1F-VC140-MT.LIB
W:\LIB\VCPKG-MASTER\INSTALLED\X64-WINDOWS-STATIC\LIB\BOOST_MATH_TR1L-VC140-MT.LIB
W:\LIB\VCPKG-MASTER\INSTALLED\X64-WINDOWS-STATIC\LIB\BOOST_NOWIDE-VC140-MT.LIB
W:\LIB\VCPKG-MASTER\INSTALLED\X64-WINDOWS-STATIC\LIB\BOOST_PROGRAM_OPTIONS-VC140-MT.LIB
W:\LIB\VCPKG-MASTER\INSTALLED\X64-WINDOWS-STATIC\LIB\BOOST_PYTHON38-VC140-MT.LIB
W:\LIB\VCPKG-MASTER\INSTALLED\X64-WINDOWS-STATIC\LIB\BOOST_RANDOM-VC140-MT.LIB
W:\LIB\VCPKG-MASTER\INSTALLED\X64-WINDOWS-STATIC\LIB\BOOST_REGEX-VC140-MT.LIB
W:\LIB\VCPKG-MASTER\INSTALLED\X64-WINDOWS-STATIC\LIB\BOOST_SERIALIZATION-VC140-MT.LIB
W:\LIB\VCPKG-MASTER\INSTALLED\X64-WINDOWS-STATIC\LIB\BOOST_STACKTRACE_NOOP-VC140-MT.LIB
W:\LIB\VCPKG-MASTER\INSTALLED\X64-WINDOWS-STATIC\LIB\BOOST_STACKTRACE_WINDBG-VC140-MT.LIB
W:\LIB\VCPKG-MASTER\INSTALLED\X64-WINDOWS-STATIC\LIB\BOOST_STACKTRACE_WINDBG_CACHED-VC140-MT.LIB
W:\LIB\VCPKG-MASTER\INSTALLED\X64-WINDOWS-STATIC\LIB\BOOST_SYSTEM-VC140-MT.LIB
W:\LIB\VCPKG-MASTER\INSTALLED\X64-WINDOWS-STATIC\LIB\BOOST_THREAD-VC140-MT.LIB
W:\LIB\VCPKG-MASTER\INSTALLED\X64-WINDOWS-STATIC\LIB\BOOST_TIMER-VC140-MT.LIB
W:\LIB\VCPKG-MASTER\INSTALLED\X64-WINDOWS-STATIC\LIB\BOOST_TYPE_ERASURE-VC140-MT.LIB
W:\LIB\VCPKG-MASTER\INSTALLED\X64-WINDOWS-STATIC\LIB\BOOST_UNIT_TEST_FRAMEWORK-VC140-MT.LIB
W:\LIB\VCPKG-MASTER\INSTALLED\X64-WINDOWS-STATIC\LIB\BOOST_WAVE-VC140-MT.LIB
W:\LIB\VCPKG-MASTER\INSTALLED\X64-WINDOWS-STATIC\LIB\BOOST_WSERIALIZATION-VC140-MT.LIB
W:\LIB\VCPKG-MASTER\INSTALLED\X64-WINDOWS-STATIC\LIB\BROTLICOMMON-STATIC.LIB
W:\LIB\VCPKG-MASTER\INSTALLED\X64-WINDOWS-STATIC\LIB\BROTLIDEC-STATIC.LIB
W:\LIB\VCPKG-MASTER\INSTALLED\X64-WINDOWS-STATIC\LIB\BROTLIENC-STATIC.LIB
W:\LIB\VCPKG-MASTER\INSTALLED\X64-WINDOWS-STATIC\LIB\BZ2.LIB
W:\LIB\VCPKG-MASTER\INSTALLED\X64-WINDOWS-STATIC\LIB\CERES.LIB
W:\LIB\VCPKG-MASTER\INSTALLED\X64-WINDOWS-STATIC\LIB\CHARLS.LIB
W:\LIB\VCPKG-MASTER\INSTALLED\X64-WINDOWS-STATIC\LIB\CMR.LIB
W:\LIB\VCPKG-MASTER\INSTALLED\X64-WINDOWS-STATIC\LIB\CPPREST_2_10.LIB
W:\LIB\VCPKG-MASTER\INSTALLED\X64-WINDOWS-STATIC\LIB\DCMDATA.LIB
W:\LIB\VCPKG-MASTER\INSTALLED\X64-WINDOWS-STATIC\LIB\DCMDSIG.LIB
W:\LIB\VCPKG-MASTER\INSTALLED\X64-WINDOWS-STATIC\LIB\DCMECT.LIB
W:\LIB\VCPKG-MASTER\INSTALLED\X64-WINDOWS-STATIC\LIB\DCMFG.LIB
W:\LIB\VCPKG-MASTER\INSTALLED\X64-WINDOWS-STATIC\LIB\DCMIMAGE.LIB
W:\LIB\VCPKG-MASTER\INSTALLED\X64-WINDOWS-STATIC\LIB\DCMIMGLE.LIB
W:\LIB\VCPKG-MASTER\INSTALLED\X64-WINDOWS-STATIC\LIB\DCMIOD.LIB
W:\LIB\VCPKG-MASTER\INSTALLED\X64-WINDOWS-STATIC\LIB\DCMJPEG.LIB
W:\LIB\VCPKG-MASTER\INSTALLED\X64-WINDOWS-STATIC\LIB\DCMJPLS.LIB
W:\LIB\VCPKG-MASTER\INSTALLED\X64-WINDOWS-STATIC\LIB\DCMNET.LIB
W:\LIB\VCPKG-MASTER\INSTALLED\X64-WINDOWS-STATIC\LIB\DCMPMAP.LIB
W:\LIB\VCPKG-MASTER\INSTALLED\X64-WINDOWS-STATIC\LIB\DCMPSTAT.LIB
W:\LIB\VCPKG-MASTER\INSTALLED\X64-WINDOWS-STATIC\LIB\DCMQRDB.LIB
W:\LIB\VCPKG-MASTER\INSTALLED\X64-WINDOWS-STATIC\LIB\DCMRT.LIB
W:\LIB\VCPKG-MASTER\INSTALLED\X64-WINDOWS-STATIC\LIB\DCMSEG.LIB
W:\LIB\VCPKG-MASTER\INSTALLED\X64-WINDOWS-STATIC\LIB\DCMSR.LIB
W:\LIB\VCPKG-MASTER\INSTALLED\X64-WINDOWS-STATIC\LIB\DCMTLS.LIB
W:\LIB\VCPKG-MASTER\INSTALLED\X64-WINDOWS-STATIC\LIB\DCMTRACT.LIB
W:\LIB\VCPKG-MASTER\INSTALLED\X64-WINDOWS-STATIC\LIB\DCMWLM.LIB
W:\LIB\VCPKG-MASTER\INSTALLED\X64-WINDOWS-STATIC\LIB\FMT.LIB
W:\LIB\VCPKG-MASTER\INSTALLED\X64-WINDOWS-STATIC\LIB\GFLAGS_STATIC.LIB
W:\LIB\VCPKG-MASTER\INSTALLED\X64-WINDOWS-STATIC\LIB\GLOG.LIB
W:\LIB\VCPKG-MASTER\INSTALLED\X64-WINDOWS-STATIC\LIB\GLU32.LIB
W:\LIB\VCPKG-MASTER\INSTALLED\X64-WINDOWS-STATIC\LIB\HIDAPI.LIB
W:\LIB\VCPKG-MASTER\INSTALLED\X64-WINDOWS-STATIC\LIB\I2D.LIB
W:\LIB\VCPKG-MASTER\INSTALLED\X64-WINDOWS-STATIC\LIB\IJG12.LIB
W:\LIB\VCPKG-MASTER\INSTALLED\X64-WINDOWS-STATIC\LIB\IJG16.LIB
W:\LIB\VCPKG-MASTER\INSTALLED\X64-WINDOWS-STATIC\LIB\IJG8.LIB
W:\LIB\VCPKG-MASTER\INSTALLED\X64-WINDOWS-STATIC\LIB\JPEG.LIB
W:\LIB\VCPKG-MASTER\INSTALLED\X64-WINDOWS-STATIC\LIB\LIBCRYPTO.LIB
W:\LIB\VCPKG-MASTER\INSTALLED\X64-WINDOWS-STATIC\LIB\LIBCURL.LIB
W:\LIB\VCPKG-MASTER\INSTALLED\X64-WINDOWS-STATIC\LIB\LIBFFI.LIB
W:\LIB\VCPKG-MASTER\INSTALLED\X64-WINDOWS-STATIC\LIB\LIBPNG16.LIB
W:\LIB\VCPKG-MASTER\INSTALLED\X64-WINDOWS-STATIC\LIB\LIBPROTOBUF-LITE.LIB
W:\LIB\VCPKG-MASTER\INSTALLED\X64-WINDOWS-STATIC\LIB\LIBPROTOBUF.LIB
W:\LIB\VCPKG-MASTER\INSTALLED\X64-WINDOWS-STATIC\LIB\LIBPROTOC.LIB
W:\LIB\VCPKG-MASTER\INSTALLED\X64-WINDOWS-STATIC\LIB\LIBSSL.LIB
W:\LIB\VCPKG-MASTER\INSTALLED\X64-WINDOWS-STATIC\LIB\LIBWEBPMUX.LIB
W:\LIB\VCPKG-MASTER\INSTALLED\X64-WINDOWS-STATIC\LIB\LZMA.LIB
W:\LIB\VCPKG-MASTER\INSTALLED\X64-WINDOWS-STATIC\LIB\OFLOG.LIB
W:\LIB\VCPKG-MASTER\INSTALLED\X64-WINDOWS-STATIC\LIB\OFSTD.LIB
W:\LIB\VCPKG-MASTER\INSTALLED\X64-WINDOWS-STATIC\LIB\OPENCV_CALIB3D.LIB
W:\LIB\VCPKG-MASTER\INSTALLED\X64-WINDOWS-STATIC\LIB\OPENCV_CORE.LIB
W:\LIB\VCPKG-MASTER\INSTALLED\X64-WINDOWS-STATIC\LIB\OPENCV_DNN.LIB
W:\LIB\VCPKG-MASTER\INSTALLED\X64-WINDOWS-STATIC\LIB\OPENCV_FEATURES2D.LIB
W:\LIB\VCPKG-MASTER\INSTALLED\X64-WINDOWS-STATIC\LIB\OPENCV_FLANN.LIB
W:\LIB\VCPKG-MASTER\INSTALLED\X64-WINDOWS-STATIC\LIB\OPENCV_HIGHGUI.LIB
W:\LIB\VCPKG-MASTER\INSTALLED\X64-WINDOWS-STATIC\LIB\OPENCV_IMGCODECS.LIB
W:\LIB\VCPKG-MASTER\INSTALLED\X64-WINDOWS-STATIC\LIB\OPENCV_IMGPROC.LIB
W:\LIB\VCPKG-MASTER\INSTALLED\X64-WINDOWS-STATIC\LIB\OPENCV_ML.LIB
W:\LIB\VCPKG-MASTER\INSTALLED\X64-WINDOWS-STATIC\LIB\OPENCV_OBJDETECT.LIB
W:\LIB\VCPKG-MASTER\INSTALLED\X64-WINDOWS-STATIC\LIB\OPENCV_PHOTO.LIB
W:\LIB\VCPKG-MASTER\INSTALLED\X64-WINDOWS-STATIC\LIB\OPENCV_STITCHING.LIB
W:\LIB\VCPKG-MASTER\INSTALLED\X64-WINDOWS-STATIC\LIB\OPENCV_VIDEO.LIB
W:\LIB\VCPKG-MASTER\INSTALLED\X64-WINDOWS-STATIC\LIB\OPENCV_VIDEOIO.LIB
W:\LIB\VCPKG-MASTER\INSTALLED\X64-WINDOWS-STATIC\LIB\OPENGL32.LIB
W:\LIB\VCPKG-MASTER\INSTALLED\X64-WINDOWS-STATIC\LIB\PYTHON38.LIB
W:\LIB\VCPKG-MASTER\INSTALLED\X64-WINDOWS-STATIC\LIB\QUIRC.LIB
W:\LIB\VCPKG-MASTER\INSTALLED\X64-WINDOWS-STATIC\LIB\SWRESAMPLE.LIB
W:\LIB\VCPKG-MASTER\INSTALLED\X64-WINDOWS-STATIC\LIB\SWSCALE.LIB
W:\LIB\VCPKG-MASTER\INSTALLED\X64-WINDOWS-STATIC\LIB\TIFF.LIB
W:\LIB\VCPKG-MASTER\INSTALLED\X64-WINDOWS-STATIC\LIB\TIFFXX.LIB
W:\LIB\VCPKG-MASTER\INSTALLED\X64-WINDOWS-STATIC\LIB\TURBOJPEG.LIB
W:\LIB\VCPKG-MASTER\INSTALLED\X64-WINDOWS-STATIC\LIB\WEBP.LIB
W:\LIB\VCPKG-MASTER\INSTALLED\X64-WINDOWS-STATIC\LIB\WEBPDECODER.LIB
W:\LIB\VCPKG-MASTER\INSTALLED\X64-WINDOWS-STATIC\LIB\WEBPDEMUX.LIB
W:\LIB\VCPKG-MASTER\INSTALLED\X64-WINDOWS-STATIC\LIB\ZIP.LIB
W:\LIB\VCPKG-MASTER\INSTALLED\X64-WINDOWS-STATIC\LIB\ZLIB.LIB
W:\LIB\VCPKG-MASTER\INSTALLED\X64-WINDOWS-STATIC\LIB\ZSTD.LIB
N:\!EK\KONANLIB\KONANLIB\X64\RELEASE\AES.OBJ
N:\!EK\KONANLIB\KONANLIB\X64\RELEASE\COM.OBJ
N:\!EK\KONANLIB\KONANLIB\X64\RELEASE\DLLMAIN.OBJ
N:\!EK\KONANLIB\KONANLIB\X64\RELEASE\ENCDEC.OBJ
N:\!EK\KONANLIB\KONANLIB\X64\RELEASE\HARDDRIVESERIALNUMER.OBJ
N:\!EK\KONANLIB\KONANLIB\X64\RELEASE\HTTPHELPER.OBJ
N:\!EK\KONANLIB\KONANLIB\X64\RELEASE\KLIC.OBJ
N:\!EK\KONANLIB\KONANLIB\X64\RELEASE\KONANLIB.OBJ
N:\!EK\KONANLIB\KONANLIB\X64\RELEASE\STDAFX.OBJ
C:\WINDOWS\GLOBALIZATION\SORTING\SORTDEFAULT.NLS
C:\MSVS2019\VC\TOOLS\MSVC\14.28.29333\BIN\HOSTX86\X64\C2.DLL
C:\MSVS2019\VC\TOOLS\MSVC\14.28.29333\LIB\X64\LIBCMT.LIB
C:\MSVS2019\VC\TOOLS\MSVC\14.28.29333\LIB\X64\OLDNAMES.LIB
C:\MSVS2019\VC\TOOLS\MSVC\14.28.29333\LIB\X64\LIBCPMT.LIB
C:\MSVS2019\VC\TOOLS\MSVC\14.28.29333\LIB\X64\LIBCONCRT.LIB
C:\MSVS2019\VC\TOOLS\MSVC\14.28.29333\ATLMFC\LIB\X64\ATLS.LIB
C:\WINDOWS KITS\10\LIB\10.0.18362.0\UM\X64\SHLWAPI.LIB
C:\MSVS2019\VC\TOOLS\MSVC\14.28.29333\LIB\X64\LIBVCRUNTIME.LIB
C:\WINDOWS KITS\10\LIB\10.0.18362.0\UCRT\X64\LIBUCRT.LIB
C:\WINDOWS\SYSTEM32\TZRES.DLL
C:\MSVS2019\VC\TOOLS\MSVC\14.28.29333\BIN\HOSTX86\X64\1033\LINKUI.DLL
C:\MSVS2019\VC\TOOLS\MSVC\14.28.29333\BIN\HOSTX86\X64\CVTRES.EXE
