^N:\!EK\KONANLIB\KONANLIB\STDAFX.CPP
/c /I"N:\!EK\KONANLIB\KONANLIB\..\..\INCLUDE" /I"W:\LIB\VCPKG-MASTER\INSTALLED\X86-WINDOWS-STATIC\INCLUDE" /ZI /JMC /nologo /W3 /WX- /diagnostics:column /sdl /Od /Oy- /D _NO_ASYNCRTIMP /D _DEBUG /D _WINSOCK_DEPRECATED_NO_WARNINGS /D CPPREST_TARGET_XP /D KLICPROXY_EXPORTS /D _CRT_SECURE_NO_WARNINGS /D WIN32 /D _WINDOWS /D _USRDLL /D KONANLIB_EXPORTS /D _WINDLL /D _UNICODE /D UNICODE /Gm- /EHsc /RTC1 /MTd /GS /Zc:wchar_t /Zc:forScope /Zc:inline /std:c++14 /Yc"stdafx.h" /Fp"DEBUGOFA\KONANLIB.PCH" /Fo"DEBUGOFA\\" /Fd"DEBUGOFA\VC142.PDB" /Gd /TP /analyze- /FC N:\!EK\KONANLIB\KONANLIB\STDAFX.CPP
^N:\!EK\KONANLIB\KONANLIB\AES.CPP
/c /I"N:\!EK\KONANLIB\KONANLIB\..\..\INCLUDE" /I"W:\LIB\VCPKG-MASTER\INSTALLED\X86-WINDOWS-STATIC\INCLUDE" /ZI /JMC /nologo /W3 /WX- /diagnostics:column /sdl /Od /Oy- /D _NO_ASYNCRTIMP /D _DEBUG /D _WINSOCK_DEPRECATED_NO_WARNINGS /D CPPREST_TARGET_XP /D KLICPROXY_EXPORTS /D _CRT_SECURE_NO_WARNINGS /D WIN32 /D _WINDOWS /D _USRDLL /D KONANLIB_EXPORTS /D _WINDLL /D _UNICODE /D UNICODE /Gm- /EHsc /RTC1 /MTd /GS /Zc:wchar_t /Zc:forScope /Zc:inline /std:c++14 /Yu"stdafx.h" /Fp"DEBUGOFA\KONANLIB.PCH" /Fo"DEBUGOFA\\" /Fd"DEBUGOFA\VC142.PDB" /Gd /TP /analyze- /FC N:\!EK\KONANLIB\KONANLIB\AES.CPP
^N:\!EK\KONANLIB\KONANLIB\COM.CPP
/c /I"N:\!EK\KONANLIB\KONANLIB\..\..\INCLUDE" /I"W:\LIB\VCPKG-MASTER\INSTALLED\X86-WINDOWS-STATIC\INCLUDE" /ZI /JMC /nologo /W3 /WX- /diagnostics:column /sdl /Od /Oy- /D _NO_ASYNCRTIMP /D _DEBUG /D _WINSOCK_DEPRECATED_NO_WARNINGS /D CPPREST_TARGET_XP /D KLICPROXY_EXPORTS /D _CRT_SECURE_NO_WARNINGS /D WIN32 /D _WINDOWS /D _USRDLL /D KONANLIB_EXPORTS /D _WINDLL /D _UNICODE /D UNICODE /Gm- /EHsc /RTC1 /MTd /GS /Zc:wchar_t /Zc:forScope /Zc:inline /std:c++14 /Yu"stdafx.h" /Fp"DEBUGOFA\KONANLIB.PCH" /Fo"DEBUGOFA\\" /Fd"DEBUGOFA\VC142.PDB" /Gd /TP /analyze- /FC N:\!EK\KONANLIB\KONANLIB\COM.CPP
^N:\!EK\KONANLIB\KONANLIB\HARDDRIVESERIALNUMER.CPP
/c /I"N:\!EK\KONANLIB\KONANLIB\..\..\INCLUDE" /I"W:\LIB\VCPKG-MASTER\INSTALLED\X86-WINDOWS-STATIC\INCLUDE" /ZI /JMC /nologo /W3 /WX- /diagnostics:column /sdl /Od /Oy- /D _NO_ASYNCRTIMP /D _DEBUG /D _WINSOCK_DEPRECATED_NO_WARNINGS /D CPPREST_TARGET_XP /D KLICPROXY_EXPORTS /D _CRT_SECURE_NO_WARNINGS /D WIN32 /D _WINDOWS /D _USRDLL /D KONANLIB_EXPORTS /D _WINDLL /D _UNICODE /D UNICODE /Gm- /EHsc /RTC1 /MTd /GS /Zc:wchar_t /Zc:forScope /Zc:inline /std:c++14 /Yu"stdafx.h" /Fp"DEBUGOFA\KONANLIB.PCH" /Fo"DEBUGOFA\\" /Fd"DEBUGOFA\VC142.PDB" /Gd /TP /analyze- /FC N:\!EK\KONANLIB\KONANLIB\HARDDRIVESERIALNUMER.CPP
^N:\!EK\KONANLIB\KONANLIB\HTTPHELPER.CPP
/c /I"N:\!EK\KONANLIB\KONANLIB\..\..\INCLUDE" /I"W:\LIB\VCPKG-MASTER\INSTALLED\X86-WINDOWS-STATIC\INCLUDE" /ZI /JMC /nologo /W3 /WX- /diagnostics:column /sdl /Od /Oy- /D _NO_ASYNCRTIMP /D _DEBUG /D _WINSOCK_DEPRECATED_NO_WARNINGS /D CPPREST_TARGET_XP /D KLICPROXY_EXPORTS /D _CRT_SECURE_NO_WARNINGS /D WIN32 /D _WINDOWS /D _USRDLL /D KONANLIB_EXPORTS /D _WINDLL /D _UNICODE /D UNICODE /Gm- /EHsc /RTC1 /MTd /GS /Zc:wchar_t /Zc:forScope /Zc:inline /std:c++14 /Yu"stdafx.h" /Fp"DEBUGOFA\KONANLIB.PCH" /Fo"DEBUGOFA\\" /Fd"DEBUGOFA\VC142.PDB" /Gd /TP /analyze- /FC N:\!EK\KONANLIB\KONANLIB\HTTPHELPER.CPP
^N:\!EK\KONANLIB\KONANLIB\ENCDEC.CPP
/c /I"N:\!EK\KONANLIB\KONANLIB\..\..\INCLUDE" /I"W:\LIB\VCPKG-MASTER\INSTALLED\X86-WINDOWS-STATIC\INCLUDE" /ZI /JMC /nologo /W3 /WX- /diagnostics:column /sdl /Od /Oy- /D _NO_ASYNCRTIMP /D _DEBUG /D _WINSOCK_DEPRECATED_NO_WARNINGS /D CPPREST_TARGET_XP /D KLICPROXY_EXPORTS /D _CRT_SECURE_NO_WARNINGS /D WIN32 /D _WINDOWS /D _USRDLL /D KONANLIB_EXPORTS /D _WINDLL /D _UNICODE /D UNICODE /Gm- /EHsc /RTC1 /MTd /GS /Zc:wchar_t /Zc:forScope /Zc:inline /std:c++14 /Yu"stdafx.h" /Fp"DEBUGOFA\KONANLIB.PCH" /Fo"DEBUGOFA\\" /Fd"DEBUGOFA\VC142.PDB" /Gd /TP /analyze- /FC N:\!EK\KONANLIB\KONANLIB\ENCDEC.CPP
^N:\!EK\KONANLIB\KONANLIB\KLIC.CPP
/c /I"N:\!EK\KONANLIB\KONANLIB\..\..\INCLUDE" /I"W:\LIB\VCPKG-MASTER\INSTALLED\X86-WINDOWS-STATIC\INCLUDE" /ZI /JMC /nologo /W3 /WX- /diagnostics:column /sdl /Od /Oy- /D _NO_ASYNCRTIMP /D _DEBUG /D _WINSOCK_DEPRECATED_NO_WARNINGS /D CPPREST_TARGET_XP /D KLICPROXY_EXPORTS /D _CRT_SECURE_NO_WARNINGS /D WIN32 /D _WINDOWS /D _USRDLL /D KONANLIB_EXPORTS /D _WINDLL /D _UNICODE /D UNICODE /Gm- /EHsc /RTC1 /MTd /GS /Zc:wchar_t /Zc:forScope /Zc:inline /std:c++14 /Yu"stdafx.h" /Fp"DEBUGOFA\KONANLIB.PCH" /Fo"DEBUGOFA\\" /Fd"DEBUGOFA\VC142.PDB" /Gd /TP /analyze- /FC N:\!EK\KONANLIB\KONANLIB\KLIC.CPP
^N:\!EK\KONANLIB\KONANLIB\KONANLIB.CPP
/c /I"N:\!EK\KONANLIB\KONANLIB\..\..\INCLUDE" /I"W:\LIB\VCPKG-MASTER\INSTALLED\X86-WINDOWS-STATIC\INCLUDE" /ZI /JMC /nologo /W3 /WX- /diagnostics:column /sdl /Od /Oy- /D _NO_ASYNCRTIMP /D _DEBUG /D _WINSOCK_DEPRECATED_NO_WARNINGS /D CPPREST_TARGET_XP /D KLICPROXY_EXPORTS /D _CRT_SECURE_NO_WARNINGS /D WIN32 /D _WINDOWS /D _USRDLL /D KONANLIB_EXPORTS /D _WINDLL /D _UNICODE /D UNICODE /Gm- /EHsc /RTC1 /MTd /GS /Zc:wchar_t /Zc:forScope /Zc:inline /std:c++14 /Yu"stdafx.h" /Fp"DEBUGOFA\KONANLIB.PCH" /Fo"DEBUGOFA\\" /Fd"DEBUGOFA\VC142.PDB" /Gd /TP /analyze- /FC N:\!EK\KONANLIB\KONANLIB\KONANLIB.CPP
^N:\!EK\KONANLIB\KONANLIB\DLLMAIN.CPP
/c /I"N:\!EK\KONANLIB\KONANLIB\..\..\INCLUDE" /I"W:\LIB\VCPKG-MASTER\INSTALLED\X86-WINDOWS-STATIC\INCLUDE" /ZI /JMC /nologo /W3 /WX- /diagnostics:column /sdl /Od /Oy- /D _NO_ASYNCRTIMP /D _DEBUG /D _WINSOCK_DEPRECATED_NO_WARNINGS /D CPPREST_TARGET_XP /D KLICPROXY_EXPORTS /D _CRT_SECURE_NO_WARNINGS /D WIN32 /D _WINDOWS /D _USRDLL /D KONANLIB_EXPORTS /D _WINDLL /D _UNICODE /D UNICODE /Gm- /EHsc /RTC1 /MTd /GS /Zc:wchar_t /Zc:forScope /Zc:inline /std:c++14 /Fo"DEBUGOFA\\" /Fd"DEBUGOFA\VC142.PDB" /Gd /TP /analyze- /FC N:\!EK\KONANLIB\KONANLIB\DLLMAIN.CPP
