^N:\!EK\KONANLIB\KONANLIB\DEBUGOFA\AES.OBJ|N:\!EK\KONANLIB\KONANLIB\DEBUGOFA\COM.OBJ|N:\!EK\KONANLIB\KONANLIB\DEBUGOFA\DLLMAIN.OBJ|N:\!EK\KONANLIB\KONANLIB\DEBUGOFA\ENCDEC.OBJ|N:\!EK\KONANLIB\KONANLIB\DEBUGOFA\HARDDRIVESERIALNUMER.OBJ|N:\!EK\KONANLIB\KONANLIB\DEBUGOFA\HTTPHELPER.OBJ|N:\!EK\KONANLIB\KONANLIB\DEBUGOFA\KLIC.OBJ|N:\!EK\KONANLIB\KONANLIB\DEBUGOFA\KONANLIB.OBJ|N:\!EK\KONANLIB\KONANLIB\DEBUGOFA\STDAFX.OBJ
N:\!EK\X86\DEBUGOFA\KONANLIB.ILK
N:\!EK\X86\DEBUGOFA\KONANLIB.DLL
N:\!EK\X86\DEBUGOFA\KONANLIB.PDB
